{
    "date": "2021-12-02 10:10:57",
    "name": "Demo",
    "format": "json",
    "files": [
        "configuration/Module/Demo.json",
        "configuration/SystemParam/DEMO_PRD_LOWSTOCK_PERIOD.json",
        "configuration/SystemParam/DEMO_PRD_LOWSTOCK_THRESHOLD.json",
        "configuration/SystemParam/DEMO_VAT.json",
        "configuration/Theme/demo.json",
        "configuration/View/DemoHome.json",
        "configuration/View/DemoAdminHome.json",
        "configuration/View/DemoUserHome.json",
        "configuration/ModelTemplate/DemoModel.json",
        "configuration/Model/DemoCatalog.json",
        "configuration/Model/DemoContactStates.json",
        "configuration/Model/DemoObjects.json",
        "configuration/Model/DemoOrderStates.json",
        "configuration/Model/DemoUsers.json",
        "configuration/Model/DemoWorkflow.json",
        "configuration/User/admin.json",
        "configuration/User/user_enu.json",
        "configuration/User/user_fra.json",
        "configuration/User/website.json",
        "configuration/UserSysParam/FORCE_CHANGE_PASSWORD-admin.json",
        "configuration/UserSysParam/FORCE_CHANGE_PASSWORD-user_enu.json",
        "configuration/UserSysParam/FORCE_CHANGE_PASSWORD-user_fra.json",
        "configuration/UserSysParam/FORCE_CHANGE_PASSWORD-website.json",
        "configuration/Group/DEMO_ADMIN.json",
        "configuration/Group/DEMO_PUBLIC.json",
        "configuration/Group/DEMO_USER.json",
        "configuration/Group/DEMO_WEBSITE.json",
        "configuration/Profile/ADMIN-DEMO_ADMIN.json",
        "configuration/Profile/DEMO_ADMIN-MODELER.json",
        "configuration/Profile/DEMO_ADMIN-SOCIAL_USER.json",
        "configuration/Profile/DEMO_ADMIN-USER_PASSWORD.json",
        "configuration/Profile/DEMO_ADMIN-WEB_USER.json",
        "configuration/Profile/DEMO_USER-SOCIAL_USER.json",
        "configuration/Profile/DEMO_USER-USER_PASSWORD.json",
        "configuration/Profile/DEMO_USER-WEB_USER.json",
        "configuration/Profile/DESIGNER-DEMO_ADMIN.json",
        "configuration/Responsability/admin-DEMO_ADMIN-20000101.json",
        "configuration/Responsability/admin-SOCIAL_ADMIN-20000101.json",
        "configuration/Responsability/admin-SOCIAL_USER-20000101.json",
        "configuration/Responsability/admin-USER_ADMIN-20000101.json",
        "configuration/Responsability/admin-USER_PASSWORD-20000101.json",
        "configuration/Responsability/admin-WEB_ADMIN-20000101.json",
        "configuration/Responsability/admin-WEB_USER-20000101.json",
        "configuration/Responsability/designer-DEMO_ADMIN-20150210.json",
        "configuration/Responsability/public-DEMO_PUBLIC-20001001.json",
        "configuration/Responsability/public-DEMO_PUBLIC-20150210.json",
        "configuration/Responsability/user_enu-DEMO_USER-20000101.json",
        "configuration/Responsability/user_enu-SOCIAL_USER-20000101.json",
        "configuration/Responsability/user_enu-USER_PASSWORD-20000101.json",
        "configuration/Responsability/user_enu-WEB_USER-20000101.json",
        "configuration/Responsability/user_fra-DEMO_USER-20000101.json",
        "configuration/Responsability/user_fra-SOCIAL_USER-20000101.json",
        "configuration/Responsability/user_fra-USER_PASSWORD-20000101.json",
        "configuration/Responsability/user_fra-WEB_USER-20000101.json",
        "configuration/Responsability/website-DEMO_WEBSITE-20141017.json",
        "configuration/ShortCut/DemoProductNew.json",
        "configuration/ShortCut/DemoClientNew.json",
        "configuration/ShortCut/DemoOrderNew.json",
        "configuration/ShortCut/DemoDoc.json",
        "configuration/ShortCutGroup/DemoClientNew-DEMO_ADMIN.json",
        "configuration/ShortCutGroup/DemoClientNew-DEMO_USER.json",
        "configuration/ShortCutGroup/DemoDoc-DEMO_ADMIN.json",
        "configuration/ShortCutGroup/DemoOrderNew-DEMO_ADMIN.json",
        "configuration/ShortCutGroup/DemoOrderNew-DEMO_USER.json",
        "configuration/ShortCutGroup/DemoProductNew-DEMO_ADMIN.json",
        "configuration/ListOfValue/TEXT-DEMO_ADMIN-ANY.json",
        "configuration/ListOfValue/TEXT-DEMO_USER-ANY.json",
        "configuration/ListOfValue/TEXT-DEMO_EVENT_001-ENU.json",
        "configuration/ListOfValue/TEXT-DEMO_ORDER_NUMBER-ENU.json",
        "configuration/ListOfValue/TEXT-DEMO_PRD_ERR_INCREMENT-ENU.json",
        "configuration/ListOfValue/TEXT-DEMO_PRD_STOCK_DECREASED-ENU.json",
        "configuration/ListOfValue/TEXT-DEMO_PRD_STOCK_INCREASED-ENU.json",
        "configuration/ListOfValue/TEXT-DEMO_RECEIPT-ENU.json",
        "configuration/ListOfValue/TEXT-DEMO_TREEVIEW-ENU.json",
        "configuration/ListOfValue/TEXT-ERR_DEMO_INVALID_PHONE_NUMBER-ENU.json",
        "configuration/ListOfValue/TEXT-ERR_DEMO_ORD_QUANTITY-ENU.json",
        "configuration/ListOfValue/TEXT-ERR_DEMO_PRD_LOWSTOCK-ENU.json",
        "configuration/ListOfValue/TEXT-ERR_DEMO_PRD_STOCK-ENU.json",
        "configuration/ListOfValue/TEXT-DEBUG_UI-FRA.json",
        "configuration/ListOfValue/TEXT-DEMO_EVENT_001-FRA.json",
        "configuration/ListOfValue/TEXT-DEMO_ORDER_NUMBER-FRA.json",
        "configuration/ListOfValue/TEXT-DEMO_PRD_ERR_INCREMENT-FRA.json",
        "configuration/ListOfValue/TEXT-DEMO_PRD_STOCK_DECREASED-FRA.json",
        "configuration/ListOfValue/TEXT-DEMO_PRD_STOCK_INCREASED-FRA.json",
        "configuration/ListOfValue/TEXT-DEMO_RECEIPT-FRA.json",
        "configuration/ListOfValue/TEXT-DEMO_TREEVIEW-FRA.json",
        "configuration/ListOfValue/TEXT-ERR_DEMO_INVALID_PHONE_NUMBER-FRA.json",
        "configuration/ListOfValue/TEXT-ERR_DEMO_ORD_QUANTITY-FRA.json",
        "configuration/ListOfValue/TEXT-ERR_DEMO_PRD_LOWSTOCK-FRA.json",
        "configuration/ListOfValue/TEXT-ERR_DEMO_PRD_STOCK-FRA.json",
        "configuration/ListOfValue/TEXT-LESS_ROWS-FRA.json",
        "configuration/FieldList/DEMO_CLI_TYPE.json",
        "configuration/FieldList/DEMO_COUNTRY.json",
        "configuration/FieldList/DEMO_CTC_CANAL.json",
        "configuration/FieldList/DEMO_CTC_STATUS.json",
        "configuration/FieldList/DEMO_CTC_SUBTYPE.json",
        "configuration/FieldList/DEMO_CTC_SUBTYPE_CMP.json",
        "configuration/FieldList/DEMO_CTC_SUBTYPE_INF.json",
        "configuration/FieldList/DEMO_CTC_SUBTYPE_REQ.json",
        "configuration/FieldList/DEMO_CTC_TYPE.json",
        "configuration/FieldList/DEMO_ORD_STATUS.json",
        "configuration/FieldList/DEMO_PRD_TYPE.json",
        "configuration/FieldListCode/DEMO_CLI_TYPE-T1.json",
        "configuration/FieldListCode/DEMO_CLI_TYPE-T2.json",
        "configuration/FieldListCode/DEMO_CLI_TYPE-T3.json",
        "configuration/FieldListCode/DEMO_COUNTRY-FR.json",
        "configuration/FieldListCode/DEMO_COUNTRY-UK.json",
        "configuration/FieldListCode/DEMO_COUNTRY-SP.json",
        "configuration/FieldListCode/DEMO_CTC_CANAL-PHONE.json",
        "configuration/FieldListCode/DEMO_CTC_CANAL-EMAIL.json",
        "configuration/FieldListCode/DEMO_CTC_CANAL-CHAT.json",
        "configuration/FieldListCode/DEMO_CTC_CANAL-WEB.json",
        "configuration/FieldListCode/DEMO_CTC_STATUS-O.json",
        "configuration/FieldListCode/DEMO_CTC_STATUS-C.json",
        "configuration/FieldListCode/DEMO_CTC_STATUS-P.json",
        "configuration/FieldListCode/DEMO_CTC_SUBTYPE_CMP-ORDISSUE.json",
        "configuration/FieldListCode/DEMO_CTC_SUBTYPE_CMP-BILLISSUE.json",
        "configuration/FieldListCode/DEMO_CTC_SUBTYPE_INF-ORDSTATUS.json",
        "configuration/FieldListCode/DEMO_CTC_SUBTYPE_INF-PRDINFO.json",
        "configuration/FieldListCode/DEMO_CTC_SUBTYPE_REQ-ORDCANCEL.json",
        "configuration/FieldListCode/DEMO_CTC_SUBTYPE_REQ-ORDCHANGE.json",
        "configuration/FieldListCode/DEMO_CTC_TYPE-INF.json",
        "configuration/FieldListCode/DEMO_CTC_TYPE-REQ.json",
        "configuration/FieldListCode/DEMO_CTC_TYPE-CMP.json",
        "configuration/FieldListCode/DEMO_CTC_TYPE-OTH.json",
        "configuration/FieldListCode/DEMO_ORD_STATUS-P.json",
        "configuration/FieldListCode/DEMO_ORD_STATUS-H.json",
        "configuration/FieldListCode/DEMO_ORD_STATUS-V.json",
        "configuration/FieldListCode/DEMO_ORD_STATUS-D.json",
        "configuration/FieldListCode/DEMO_ORD_STATUS-C.json",
        "configuration/FieldListCode/DEMO_PRD_TYPE-LAPTOP.json",
        "configuration/FieldListCode/DEMO_PRD_TYPE-DESKTOP.json",
        "configuration/FieldListCode/DEMO_PRD_TYPE-TABLET.json",
        "configuration/FieldListCode/DEMO_PRD_TYPE-SMARTPHONE.json",
        "configuration/FieldListCode/DEMO_PRD_TYPE-OTHER.json",
        "configuration/FieldListValue/DEMO_CLI_TYPE-T1-ENU.json",
        "configuration/FieldListValue/DEMO_CLI_TYPE-T2-ENU.json",
        "configuration/FieldListValue/DEMO_CLI_TYPE-T3-ENU.json",
        "configuration/FieldListValue/DEMO_CLI_TYPE-T1-FRA.json",
        "configuration/FieldListValue/DEMO_CLI_TYPE-T2-FRA.json",
        "configuration/FieldListValue/DEMO_CLI_TYPE-T3-FRA.json",
        "configuration/FieldListValue/DEMO_COUNTRY-FR-ENU.json",
        "configuration/FieldListValue/DEMO_COUNTRY-UK-ENU.json",
        "configuration/FieldListValue/DEMO_COUNTRY-SP-ENU.json",
        "configuration/FieldListValue/DEMO_COUNTRY-FR-FRA.json",
        "configuration/FieldListValue/DEMO_COUNTRY-UK-FRA.json",
        "configuration/FieldListValue/DEMO_COUNTRY-SP-FRA.json",
        "configuration/FieldListValue/DEMO_CTC_CANAL-PHONE-ENU.json",
        "configuration/FieldListValue/DEMO_CTC_CANAL-EMAIL-ENU.json",
        "configuration/FieldListValue/DEMO_CTC_CANAL-CHAT-ENU.json",
        "configuration/FieldListValue/DEMO_CTC_CANAL-WEB-ENU.json",
        "configuration/FieldListValue/DEMO_CTC_CANAL-PHONE-FRA.json",
        "configuration/FieldListValue/DEMO_CTC_CANAL-EMAIL-FRA.json",
        "configuration/FieldListValue/DEMO_CTC_CANAL-CHAT-FRA.json",
        "configuration/FieldListValue/DEMO_CTC_CANAL-WEB-FRA.json",
        "configuration/FieldListValue/DEMO_CTC_STATUS-O-ENU.json",
        "configuration/FieldListValue/DEMO_CTC_STATUS-P-ENU.json",
        "configuration/FieldListValue/DEMO_CTC_STATUS-C-ENU.json",
        "configuration/FieldListValue/DEMO_CTC_STATUS-O-FRA.json",
        "configuration/FieldListValue/DEMO_CTC_STATUS-C-FRA.json",
        "configuration/FieldListValue/DEMO_CTC_STATUS-P-FRA.json",
        "configuration/FieldListValue/DEMO_CTC_SUBTYPE_CMP-ORDISSUE-ENU.json",
        "configuration/FieldListValue/DEMO_CTC_SUBTYPE_CMP-BILLISSUE-ENU.json",
        "configuration/FieldListValue/DEMO_CTC_SUBTYPE_CMP-ORDISSUE-FRA.json",
        "configuration/FieldListValue/DEMO_CTC_SUBTYPE_CMP-BILLISSUE-FRA.json",
        "configuration/FieldListValue/DEMO_CTC_SUBTYPE_INF-ORDSTATUS-ENU.json",
        "configuration/FieldListValue/DEMO_CTC_SUBTYPE_INF-PRDINFO-ENU.json",
        "configuration/FieldListValue/DEMO_CTC_SUBTYPE_INF-ORDSTATUS-FRA.json",
        "configuration/FieldListValue/DEMO_CTC_SUBTYPE_INF-PRDINFO-FRA.json",
        "configuration/FieldListValue/DEMO_CTC_SUBTYPE_REQ-ORDCANCEL-ENU.json",
        "configuration/FieldListValue/DEMO_CTC_SUBTYPE_REQ-ORDCHANGE-ENU.json",
        "configuration/FieldListValue/DEMO_CTC_SUBTYPE_REQ-ORDCANCEL-FRA.json",
        "configuration/FieldListValue/DEMO_CTC_SUBTYPE_REQ-ORDCHANGE-FRA.json",
        "configuration/FieldListValue/DEMO_CTC_TYPE-INF-ENU.json",
        "configuration/FieldListValue/DEMO_CTC_TYPE-REQ-ENU.json",
        "configuration/FieldListValue/DEMO_CTC_TYPE-CMP-ENU.json",
        "configuration/FieldListValue/DEMO_CTC_TYPE-OTH-ENU.json",
        "configuration/FieldListValue/DEMO_CTC_TYPE-INF-FRA.json",
        "configuration/FieldListValue/DEMO_CTC_TYPE-REQ-FRA.json",
        "configuration/FieldListValue/DEMO_CTC_TYPE-CMP-FRA.json",
        "configuration/FieldListValue/DEMO_CTC_TYPE-OTH-FRA.json",
        "configuration/FieldListValue/DEMO_ORD_STATUS-P-ENU.json",
        "configuration/FieldListValue/DEMO_ORD_STATUS-V-ENU.json",
        "configuration/FieldListValue/DEMO_ORD_STATUS-H-ENU.json",
        "configuration/FieldListValue/DEMO_ORD_STATUS-D-ENU.json",
        "configuration/FieldListValue/DEMO_ORD_STATUS-C-ENU.json",
        "configuration/FieldListValue/DEMO_ORD_STATUS-P-FRA.json",
        "configuration/FieldListValue/DEMO_ORD_STATUS-V-FRA.json",
        "configuration/FieldListValue/DEMO_ORD_STATUS-H-FRA.json",
        "configuration/FieldListValue/DEMO_ORD_STATUS-D-FRA.json",
        "configuration/FieldListValue/DEMO_ORD_STATUS-C-FRA.json",
        "configuration/FieldListValue/DEMO_PRD_TYPE-LAPTOP-ENU.json",
        "configuration/FieldListValue/DEMO_PRD_TYPE-DESKTOP-ENU.json",
        "configuration/FieldListValue/DEMO_PRD_TYPE-TABLET-ENU.json",
        "configuration/FieldListValue/DEMO_PRD_TYPE-SMARTPHONE-ENU.json",
        "configuration/FieldListValue/DEMO_PRD_TYPE-OTHER-ENU.json",
        "configuration/FieldListValue/DEMO_PRD_TYPE-LAPTOP-FRA.json",
        "configuration/FieldListValue/DEMO_PRD_TYPE-DESKTOP-FRA.json",
        "configuration/FieldListValue/DEMO_PRD_TYPE-TABLET-FRA.json",
        "configuration/FieldListValue/DEMO_PRD_TYPE-SMARTPHONE-FRA.json",
        "configuration/FieldListValue/DEMO_PRD_TYPE-OTHER-FRA.json",
        "configuration/Field/demoCliAddress1.json",
        "configuration/Field/demoCliAddress2.json",
        "configuration/Field/demoCliCity.json",
        "configuration/Field/demoCliCode.json",
        "configuration/Field/demoCliComments.json",
        "configuration/Field/demoCliCoords.json",
        "configuration/Field/demoCliCountry.json",
        "configuration/Field/demoCliEmail.json",
        "configuration/Field/demoCliFax.json",
        "configuration/Field/demoCliFirstname.json",
        "configuration/Field/demoCliHomePhone.json",
        "configuration/Field/demoCliLastname.json",
        "configuration/Field/demoCliMobilePhone.json",
        "configuration/Field/demoCliPlacemapLabel.json",
        "configuration/Field/demoCliType.json",
        "configuration/Field/demoCliWorkPhone.json",
        "configuration/Field/demoCliZipCode.json",
        "configuration/Field/demoCtcCanal.json",
        "configuration/Field/demoCtcCliId.json",
        "configuration/Field/demoCtcComments.json",
        "configuration/Field/demoCtcDatetime.json",
        "configuration/Field/demoCtcFile.json",
        "configuration/Field/demoCtcOrdId.json",
        "configuration/Field/demoCtcPriority.json",
        "configuration/Field/demoCtcStatus.json",
        "configuration/Field/demoCtcSubType.json",
        "configuration/Field/demoCtcType.json",
        "configuration/Field/demoOrdCliId.json",
        "configuration/Field/demoOrdComments.json",
        "configuration/Field/demoOrdDate.json",
        "configuration/Field/demoOrdDeliveryDate.json",
        "configuration/Field/demoOrdNumber.json",
        "configuration/Field/demoOrdPrdId.json",
        "configuration/Field/demoOrdQuantity.json",
        "configuration/Field/demoOrdStatus.json",
        "configuration/Field/demoOrdTotal.json",
        "configuration/Field/demoOrdUnitPrice.json",
        "configuration/Field/demoOrdVAT.json",
        "configuration/Field/demoPrdAvailable.json",
        "configuration/Field/demoPrdBrochure.json",
        "configuration/Field/demoPrdComments.json",
        "configuration/Field/demoPrdDescription.json",
        "configuration/Field/demoPrdDocumentation.json",
        "configuration/Field/demoPrdIncrement.json",
        "configuration/Field/demoPrdName.json",
        "configuration/Field/demoPrdOnlineDoc.json",
        "configuration/Field/demoPrdPicture.json",
        "configuration/Field/demoPrdReference.json",
        "configuration/Field/demoPrdStock.json",
        "configuration/Field/demoPrdSupId.json",
        "configuration/Field/demoPrdType.json",
        "configuration/Field/demoPrdUnitPrice.json",
        "configuration/Field/demoSupCode.json",
        "configuration/Field/demoSupComments.json",
        "configuration/Field/demoSupDescription.json",
        "configuration/Field/demoSupEmail.json",
        "configuration/Field/demoSupFax.json",
        "configuration/Field/demoSupLogo.json",
        "configuration/Field/demoSupName.json",
        "configuration/Field/demoSupPhone.json",
        "configuration/Field/demoSupUsrId.json",
        "configuration/Field/demoSupWebsite.json",
        "configuration/Field/uft_demoSupId.json",
        "configuration/FieldStyle/_st_-demoCtcPriority-0.json",
        "configuration/FieldStyle/_st_-demoCtcPriority-1.json",
        "configuration/FieldStyle/DemoProduct-demoPrdAvailable-0.json",
        "configuration/FieldStyle/DemoProduct-demoPrdAvailable-1.json",
        "configuration/Template/DemoClient.json",
        "configuration/Template/DemoContact.json",
        "configuration/Template/DemoOrder.json",
        "configuration/Template/DemoOrder-XML.json",
        "configuration/Template/DemoProduct.json",
        "configuration/Template/DemoProduct-EMAIL-ENU.json",
        "configuration/Template/DemoProduct-EMAIL-FRA.json",
        "configuration/Template/DemoSupplier.json",
        "configuration/ObjectFieldArea/DemoClient-1.json",
        "configuration/ObjectFieldArea/DemoClient-2.json",
        "configuration/ObjectFieldArea/DemoClient-3.json",
        "configuration/ObjectFieldArea/DemoClient-4.json",
        "configuration/ObjectFieldArea/DemoContact-1.json",
        "configuration/ObjectFieldArea/DemoContact-2.json",
        "configuration/ObjectFieldArea/DemoContact-3.json",
        "configuration/ObjectFieldArea/DemoContact-4.json",
        "configuration/ObjectFieldArea/DemoOrder-1.json",
        "configuration/ObjectFieldArea/DemoOrder-2.json",
        "configuration/ObjectFieldArea/DemoOrder-3.json",
        "configuration/ObjectFieldArea/DemoOrder-4.json",
        "configuration/ObjectFieldArea/DemoOrder-5.json",
        "configuration/ObjectFieldArea/DemoProduct-1.json",
        "configuration/ObjectFieldArea/DemoProduct-2.json",
        "configuration/ObjectFieldArea/DemoProduct-3.json",
        "configuration/ObjectFieldArea/DemoProduct-4.json",
        "configuration/ObjectFieldArea/DemoProduct-5.json",
        "configuration/ObjectFieldArea/DemoSupplier-1.json",
        "configuration/ObjectFieldArea/DemoSupplier-2.json",
        "configuration/ObjectFieldArea/DemoSupplier-3.json",
        "configuration/Domain/DemoDomain.json",
        "configuration/Domain/DemoSubDomain.json",
        "configuration/ObjectExternal/DemoCatalog.json",
        "configuration/ObjectExternal/DemoOrderAgenda.json",
        "configuration/ObjectExternal/DemoPlaceNewOrder.json",
        "configuration/ObjectInternal/DemoClient.json",
        "configuration/ObjectInternal/DemoContact.json",
        "configuration/ObjectInternal/DemoContactHistoric.json",
        "configuration/ObjectInternal/DemoOrder.json",
        "configuration/ObjectInternal/DemoOrderHistoric.json",
        "configuration/ObjectInternal/DemoProduct.json",
        "configuration/ObjectInternal/DemoProductHistoric.json",
        "configuration/ObjectInternal/DemoSupplier.json",
        "configuration/ObjectFieldSystem/DemoClient-demoCliCode-100.json",
        "configuration/ObjectFieldSystem/DemoClient-demoCliFirstname-110.json",
        "configuration/ObjectFieldSystem/DemoClient-demoCliLastname-120.json",
        "configuration/ObjectFieldSystem/DemoClient-demoCliAddress1-200.json",
        "configuration/ObjectFieldSystem/DemoClient-demoCliAddress2-210.json",
        "configuration/ObjectFieldSystem/DemoClient-demoCliZipCode-230.json",
        "configuration/ObjectFieldSystem/DemoClient-demoCliCity-240.json",
        "configuration/ObjectFieldSystem/DemoClient-demoCliCountry-250.json",
        "configuration/ObjectFieldSystem/DemoClient-demoCliCoords-260.json",
        "configuration/ObjectFieldSystem/DemoClient-demoCliEmail-300.json",
        "configuration/ObjectFieldSystem/DemoClient-demoCliHomePhone-310.json",
        "configuration/ObjectFieldSystem/DemoClient-demoCliWorkPhone-320.json",
        "configuration/ObjectFieldSystem/DemoClient-demoCliMobilePhone-330.json",
        "configuration/ObjectFieldSystem/DemoClient-demoCliFax-340.json",
        "configuration/ObjectFieldSystem/DemoClient-demoCliType-400.json",
        "configuration/ObjectFieldSystem/DemoClient-demoCliComments-410.json",
        "configuration/ObjectFieldSystem/DemoClient-demoCliPlacemapLabel-420.json",
        "configuration/ObjectFieldSystem/DemoContact-demoCtcDatetime-100.json",
        "configuration/ObjectFieldSystem/DemoContact-demoCtcType-110.json",
        "configuration/ObjectFieldSystem/DemoContact-demoCtcSubType-120.json",
        "configuration/ObjectFieldSystem/DemoContact-demoCtcCanal-130.json",
        "configuration/ObjectFieldSystem/DemoContact-demoCtcPriority-140.json",
        "configuration/ObjectFieldSystem/DemoContact-demoCtcStatus-190.json",
        "configuration/ObjectFieldSystem/DemoContact-demoCtcCliId-200.json",
        "configuration/ObjectFieldSystem/DemoContact-demoCliCode-210.json",
        "configuration/ObjectFieldSystem/DemoContact-demoCliFirstname-220.json",
        "configuration/ObjectFieldSystem/DemoContact-demoCliLastname-230.json",
        "configuration/ObjectFieldSystem/DemoContact-demoCliEmail-240.json",
        "configuration/ObjectFieldSystem/DemoContact-demoCliHomePhone-250.json",
        "configuration/ObjectFieldSystem/DemoContact-demoCliWorkPhone-260.json",
        "configuration/ObjectFieldSystem/DemoContact-demoCliMobilePhone-270.json",
        "configuration/ObjectFieldSystem/DemoContact-demoCliFax-280.json",
        "configuration/ObjectFieldSystem/DemoContact-demoCtcOrdId-300.json",
        "configuration/ObjectFieldSystem/DemoContact-demoOrdNumber-310.json",
        "configuration/ObjectFieldSystem/DemoContact-demoOrdDate-320.json",
        "configuration/ObjectFieldSystem/DemoContact-demoOrdStatus-330.json",
        "configuration/ObjectFieldSystem/DemoContact-demoOrdCliId-340.json",
        "configuration/ObjectFieldSystem/DemoContact-demoOrdPrdId-350.json",
        "configuration/ObjectFieldSystem/DemoContact-demoPrdSupId-360.json",
        "configuration/ObjectFieldSystem/DemoContact-demoSupUsrId-365.json",
        "configuration/ObjectFieldSystem/DemoContact-demoPrdReference-370.json",
        "configuration/ObjectFieldSystem/DemoContact-demoPrdName-380.json",
        "configuration/ObjectFieldSystem/DemoContact-demoOrdQuantity-390.json",
        "configuration/ObjectFieldSystem/DemoContact-demoCtcComments-400.json",
        "configuration/ObjectFieldSystem/DemoContact-demoCtcFile-410.json",
        "configuration/ObjectFieldSystem/DemoContactHistoric-row_ref_id-1.json",
        "configuration/ObjectFieldSystem/DemoContactHistoric-row_idx-2.json",
        "configuration/ObjectFieldSystem/DemoContactHistoric-created_by_hist-3.json",
        "configuration/ObjectFieldSystem/DemoContactHistoric-created_dt_hist-4.json",
        "configuration/ObjectFieldSystem/DemoContactHistoric-demoCtcStatus-100.json",
        "configuration/ObjectFieldSystem/DemoContactHistoric-demoCtcType-110.json",
        "configuration/ObjectFieldSystem/DemoContactHistoric-demoCtcSubType-120.json",
        "configuration/ObjectFieldSystem/DemoContactHistoric-demoCtcComments-130.json",
        "configuration/ObjectFieldSystem/DemoOrder-demoOrdNumber-100.json",
        "configuration/ObjectFieldSystem/DemoOrder-demoOrdDate-110.json",
        "configuration/ObjectFieldSystem/DemoOrder-demoOrdStatus-120.json",
        "configuration/ObjectFieldSystem/DemoOrder-demoOrdDeliveryDate-130.json",
        "configuration/ObjectFieldSystem/DemoOrder-demoOrdCliId-200.json",
        "configuration/ObjectFieldSystem/DemoOrder-demoCliCode-210.json",
        "configuration/ObjectFieldSystem/DemoOrder-demoCliFirstname-220.json",
        "configuration/ObjectFieldSystem/DemoOrder-demoCliLastname-230.json",
        "configuration/ObjectFieldSystem/DemoOrder-demoCliEmail-240.json",
        "configuration/ObjectFieldSystem/DemoOrder-demoCliAddress1-250.json",
        "configuration/ObjectFieldSystem/DemoOrder-demoCliAddress2-251.json",
        "configuration/ObjectFieldSystem/DemoOrder-demoCliZipCode-253.json",
        "configuration/ObjectFieldSystem/DemoOrder-demoCliCity-254.json",
        "configuration/ObjectFieldSystem/DemoOrder-demoCliCountry-255.json",
        "configuration/ObjectFieldSystem/DemoOrder-demoOrdPrdId-300.json",
        "configuration/ObjectFieldSystem/DemoOrder-demoPrdReference-310.json",
        "configuration/ObjectFieldSystem/DemoOrder-demoPrdName-320.json",
        "configuration/ObjectFieldSystem/DemoOrder-demoPrdType-325.json",
        "configuration/ObjectFieldSystem/DemoOrder-demoPrdPicture-330.json",
        "configuration/ObjectFieldSystem/DemoOrder-demoPrdSupId-340.json",
        "configuration/ObjectFieldSystem/DemoOrder-demoSupCode-350.json",
        "configuration/ObjectFieldSystem/DemoOrder-demoSupName-360.json",
        "configuration/ObjectFieldSystem/DemoOrder-demoSupLogo-370.json",
        "configuration/ObjectFieldSystem/DemoOrder-demoSupUsrId-375.json",
        "configuration/ObjectFieldSystem/DemoOrder-demoPrdStock-380.json",
        "configuration/ObjectFieldSystem/DemoOrder-demoPrdUnitPrice-390.json",
        "configuration/ObjectFieldSystem/DemoOrder-demoOrdUnitPrice-400.json",
        "configuration/ObjectFieldSystem/DemoOrder-demoOrdQuantity-410.json",
        "configuration/ObjectFieldSystem/DemoOrder-demoOrdTotal-420.json",
        "configuration/ObjectFieldSystem/DemoOrder-demoOrdVAT-430.json",
        "configuration/ObjectFieldSystem/DemoOrder-demoOrdComments-500.json",
        "configuration/ObjectFieldSystem/DemoOrderHistoric-row_ref_id-1.json",
        "configuration/ObjectFieldSystem/DemoOrderHistoric-row_idx-2.json",
        "configuration/ObjectFieldSystem/DemoOrderHistoric-created_by_hist-3.json",
        "configuration/ObjectFieldSystem/DemoOrderHistoric-created_dt_hist-4.json",
        "configuration/ObjectFieldSystem/DemoOrderHistoric-demoOrdStatus-100.json",
        "configuration/ObjectFieldSystem/DemoOrderHistoric-demoOrdQuantity-110.json",
        "configuration/ObjectFieldSystem/DemoProduct-demoPrdSupId-100.json",
        "configuration/ObjectFieldSystem/DemoProduct-demoSupCode-110.json",
        "configuration/ObjectFieldSystem/DemoProduct-demoSupName-120.json",
        "configuration/ObjectFieldSystem/DemoProduct-demoSupLogo-130.json",
        "configuration/ObjectFieldSystem/DemoProduct-demoSupUsrId-140.json",
        "configuration/ObjectFieldSystem/DemoProduct-demoPrdReference-200.json",
        "configuration/ObjectFieldSystem/DemoProduct-demoPrdName-210.json",
        "configuration/ObjectFieldSystem/DemoProduct-demoPrdType-220.json",
        "configuration/ObjectFieldSystem/DemoProduct-demoPrdDescription-230.json",
        "configuration/ObjectFieldSystem/DemoProduct-demoPrdPicture-240.json",
        "configuration/ObjectFieldSystem/DemoProduct-demoPrdStock-300.json",
        "configuration/ObjectFieldSystem/DemoProduct-demoPrdUnitPrice-310.json",
        "configuration/ObjectFieldSystem/DemoProduct-demoPrdAvailable-320.json",
        "configuration/ObjectFieldSystem/DemoProduct-demoPrdDocumentation-400.json",
        "configuration/ObjectFieldSystem/DemoProduct-demoPrdBrochure-410.json",
        "configuration/ObjectFieldSystem/DemoProduct-demoPrdOnlineDoc-420.json",
        "configuration/ObjectFieldSystem/DemoProduct-demoPrdComments-500.json",
        "configuration/ObjectFieldSystem/DemoProductHistoric-row_ref_id-1.json",
        "configuration/ObjectFieldSystem/DemoProductHistoric-row_idx-2.json",
        "configuration/ObjectFieldSystem/DemoProductHistoric-created_by_hist-3.json",
        "configuration/ObjectFieldSystem/DemoProductHistoric-created_dt_hist-4.json",
        "configuration/ObjectFieldSystem/DemoProductHistoric-demoPrdReference-200.json",
        "configuration/ObjectFieldSystem/DemoProductHistoric-demoPrdName-210.json",
        "configuration/ObjectFieldSystem/DemoProductHistoric-demoPrdUnitPrice-310.json",
        "configuration/ObjectFieldSystem/DemoProductHistoric-demoPrdAvailable-320.json",
        "configuration/ObjectFieldSystem/DemoSupplier-demoSupCode-100.json",
        "configuration/ObjectFieldSystem/DemoSupplier-demoSupName-110.json",
        "configuration/ObjectFieldSystem/DemoSupplier-demoSupDescription-120.json",
        "configuration/ObjectFieldSystem/DemoSupplier-demoSupPhone-130.json",
        "configuration/ObjectFieldSystem/DemoSupplier-demoSupFax-140.json",
        "configuration/ObjectFieldSystem/DemoSupplier-demoSupWebsite-150.json",
        "configuration/ObjectFieldSystem/DemoSupplier-demoSupEmail-160.json",
        "configuration/ObjectFieldSystem/DemoSupplier-demoSupLogo-200.json",
        "configuration/ObjectFieldSystem/DemoSupplier-demoSupUsrId-300.json",
        "configuration/ObjectFieldSystem/DemoSupplier-usr_login-310.json",
        "configuration/ObjectFieldSystem/DemoSupplier-demoSupComments-320.json",
        "configuration/ObjectFieldSystem/UserFilters-uft_demoSupId-100.json",
        "configuration/ObjectFieldSystem/UserFilters-demoSupCode-110.json",
        "configuration/Link/DemoOrder-demoOrdCliId-200.json",
        "configuration/Link/DemoContact-demoCtcCliId-200.json",
        "configuration/Link/DemoContactHistoric-row_ref_id-1.json",
        "configuration/Link/DemoContact-demoCtcOrdId-300.json",
        "configuration/Link/DemoOrderHistoric-row_ref_id-1.json",
        "configuration/Link/DemoOrder-demoOrdPrdId-300.json",
        "configuration/Link/DemoProductHistoric-row_ref_id-1.json",
        "configuration/Link/UserFilters-uft_demoSupId-100.json",
        "configuration/Link/DemoProduct-demoPrdSupId-100.json",
        "configuration/Link/DemoSupplier-demoSupUsrId-300.json",
        "configuration/LinkMap/DemoContact-demoCtcOrdId-300-DemoOrder-demoOrdCliId-200.json",
        "configuration/FieldListLink/DemoContact-demoCtcType-110-DEMO_CTC_TYPE-INF-DemoContact-demoCtcSubType-120.json",
        "configuration/FieldListLink/DemoContact-demoCtcType-110-DEMO_CTC_TYPE-REQ-DemoContact-demoCtcSubType-120.json",
        "configuration/FieldListLink/DemoContact-demoCtcType-110-DEMO_CTC_TYPE-CMP-DemoContact-demoCtcSubType-120.json",
        "configuration/Action/DEMO_CLIENTMAP.json",
        "configuration/Action/DEMO_CTC_STATUS-O-C.json",
        "configuration/Action/DEMO_CTC_STATUS-O-P.json",
        "configuration/Action/DEMO_CTC_STATUS-P-C.json",
        "configuration/Action/DEMO_DECSTOCK.json",
        "configuration/Action/DEMO_INCSTOCK.json",
        "configuration/Action/DEMO_ORD_STATUS-P-C.json",
        "configuration/Action/DEMO_ORD_STATUS-P-V.json",
        "configuration/Action/DEMO_ORD_STATUS-V-C.json",
        "configuration/Action/DEMO_ORD_STATUS-V-D.json",
        "configuration/ActionField/DEMO_INCSTOCK-demoPrdStock.json",
        "configuration/ActionField/DEMO_INCSTOCK-demoPrdIncrement.json",
        "configuration/Function/DEMO-CLI-CU.json",
        "configuration/Function/DEMO-CLI-CUD.json",
        "configuration/Function/DEMO-CLI-R.json",
        "configuration/Function/DEMO-CTC-CU.json",
        "configuration/Function/DEMO-CTC-CUD.json",
        "configuration/Function/DEMO-ORD-CU.json",
        "configuration/Function/DEMO-ORD-CUD.json",
        "configuration/Function/DEMO-ORDAGD-EXT.json",
        "configuration/Function/DEMO-PRD-CUD.json",
        "configuration/Function/DEMO-PRD-R.json",
        "configuration/Function/DEMO-SUP-CUD.json",
        "configuration/Function/DEMO-SUP-R.json",
        "configuration/Function/DEMO_CLIENTMAP-A.json",
        "configuration/Function/DEMO_DECSTOCK-A.json",
        "configuration/Function/DEMO_INCSTOCK-A.json",
        "configuration/Function/DemoCatalog-E.json",
        "configuration/Function/DemoContact-H.json",
        "configuration/Function/DemoDomain-D.json",
        "configuration/Function/DemoOrder-H.json",
        "configuration/Function/DemoOrderAgenda-E.json",
        "configuration/Function/DemoPlaceNewOrder-E.json",
        "configuration/Function/DemoProduct-H.json",
        "configuration/Grant/DEMO_ADMIN-DEMO-ORDAGD-EXT.json",
        "configuration/Grant/DEMO_ADMIN-BPMDashboard.json",
        "configuration/Grant/DEMO_ADMIN-DemoCatalog-E.json",
        "configuration/Grant/DEMO_ADMIN-DEMO-CLI-CUD.json",
        "configuration/Grant/DEMO_ADMIN-DEMO_CLIENTMAP-A.json",
        "configuration/Grant/DEMO_ADMIN-DEMO-CTC-CUD.json",
        "configuration/Grant/DEMO_ADMIN-DemoContact-H.json",
        "configuration/Grant/DEMO_ADMIN-DemoDomain-D.json",
        "configuration/Grant/DEMO_ADMIN-DEMO-ORD-CUD.json",
        "configuration/Grant/DEMO_ADMIN-DemoOrderAgenda-E.json",
        "configuration/Grant/DEMO_ADMIN-DemoOrder-H.json",
        "configuration/Grant/DEMO_ADMIN-DemoPlaceNewOrder-E.json",
        "configuration/Grant/DEMO_ADMIN-DEMO-PRD-CUD.json",
        "configuration/Grant/DEMO_ADMIN-DEMO_DECSTOCK-A.json",
        "configuration/Grant/DEMO_ADMIN-DEMO_INCSTOCK-A.json",
        "configuration/Grant/DEMO_ADMIN-DemoProduct-H.json",
        "configuration/Grant/DEMO_ADMIN-DEMO-SUP-CUD.json",
        "configuration/Grant/DEMO_ADMIN-UserFilters-CUD.json",
        "configuration/Grant/DEMO_ADMIN-UserFilters-Month-A.json",
        "configuration/Grant/DEMO_ADMIN-UserFilters-Today-A.json",
        "configuration/Grant/DEMO_ADMIN-UserFilters-Year-A.json",
        "configuration/Grant/DEMO_PUBLIC-DemoCatalog-E.json",
        "configuration/Grant/DEMO_PUBLIC-DEMO-PRD-R.json",
        "configuration/Grant/DEMO_PUBLIC-DEMO-SUP-R.json",
        "configuration/Grant/DEMO_USER-DEMO-ORDAGD-EXT.json",
        "configuration/Grant/DEMO_USER-DEMO-CLI-CU.json",
        "configuration/Grant/DEMO_USER-DEMO_CLIENTMAP-A.json",
        "configuration/Grant/DEMO_USER-DEMO-CTC-CU.json",
        "configuration/Grant/DEMO_USER-DemoContact-H.json",
        "configuration/Grant/DEMO_USER-DemoDomain-D.json",
        "configuration/Grant/DEMO_USER-DEMO-ORD-CU.json",
        "configuration/Grant/DEMO_USER-DemoOrderAgenda-E.json",
        "configuration/Grant/DEMO_USER-DemoOrder-H.json",
        "configuration/Grant/DEMO_USER-DemoPlaceNewOrder-E.json",
        "configuration/Grant/DEMO_USER-DEMO-PRD-R.json",
        "configuration/Grant/DEMO_USER-DEMO-SUP-R.json",
        "configuration/Grant/DEMO_USER-UserFilters-CUD.json",
        "configuration/Grant/DEMO_USER-UserFilters-Month-A.json",
        "configuration/Grant/DEMO_USER-UserFilters-Today-A.json",
        "configuration/Grant/DEMO_USER-UserFilters-Year-A.json",
        "configuration/Grant/DEMO_WEBSITE-DemoCatalog-E.json",
        "configuration/Grant/DEMO_WEBSITE-DEMO-CLI-R.json",
        "configuration/Grant/DEMO_WEBSITE-DEMO-CTC-CU.json",
        "configuration/Grant/DEMO_WEBSITE-DEMO-ORD-CU.json",
        "configuration/Grant/DEMO_WEBSITE-DEMO-PRD-R.json",
        "configuration/Grant/DEMO_WEBSITE-DEMO-SUP-R.json",
        "configuration/ConstraintObject/DemoContact-C1.json",
        "configuration/ConstraintObject/DemoContact-C2.json",
        "configuration/ConstraintObject/DemoContact-C3.json",
        "configuration/ConstraintObject/DemoContact-C4.json",
        "configuration/ConstraintObject/DemoOrder-C1.json",
        "configuration/ConstraintObject/DemoOrder-C2.json",
        "configuration/ConstraintObject/DemoOrder-C3.json",
        "configuration/ConstraintObject/DemoOrder-C4.json",
        "configuration/ConstraintObject/DemoOrder-C5.json",
        "configuration/ConstraintObject/DemoOrder-C6.json",
        "configuration/ConstraintObject/DemoOrder-C7.json",
        "configuration/ConstraintGroup/DemoContact-C2-DEMO_ADMIN.json",
        "configuration/ConstraintGroup/DemoOrder-C2-DEMO_ADMIN.json",
        "configuration/ConstraintGroup/DemoOrder-C7-DEMO_USER.json",
        "configuration/ConstraintImpact/DemoContact-C1-10.json",
        "configuration/ConstraintImpact/DemoContact-C1-20.json",
        "configuration/ConstraintImpact/DemoContact-C1-30.json",
        "configuration/ConstraintImpact/DemoContact-C1-40.json",
        "configuration/ConstraintImpact/DemoContact-C1-50.json",
        "configuration/ConstraintImpact/DemoContact-C1-60.json",
        "configuration/ConstraintImpact/DemoContact-C2-10.json",
        "configuration/ConstraintImpact/DemoContact-C3-10.json",
        "configuration/ConstraintImpact/DemoContact-C4-10.json",
        "configuration/ConstraintImpact/DemoContact-C3-20.json",
        "configuration/ConstraintImpact/DemoContact-C4-20.json",
        "configuration/ConstraintImpact/DemoContact-C3-30.json",
        "configuration/ConstraintImpact/DemoContact-C3-40.json",
        "configuration/ConstraintImpact/DemoContact-C3-50.json",
        "configuration/ConstraintImpact/DemoOrder-C1-10.json",
        "configuration/ConstraintImpact/DemoOrder-C1-20.json",
        "configuration/ConstraintImpact/DemoOrder-C1-30.json",
        "configuration/ConstraintImpact/DemoOrder-C1-40.json",
        "configuration/ConstraintImpact/DemoOrder-C1-50.json",
        "configuration/ConstraintImpact/DemoOrder-C1-60.json",
        "configuration/ConstraintImpact/DemoOrder-C1-70.json",
        "configuration/ConstraintImpact/DemoOrder-C2-10.json",
        "configuration/ConstraintImpact/DemoOrder-C3-10.json",
        "configuration/ConstraintImpact/DemoOrder-C3-20.json",
        "configuration/ConstraintImpact/DemoOrder-C3-30.json",
        "configuration/ConstraintImpact/DemoOrder-C4-10.json",
        "configuration/ConstraintImpact/DemoOrder-C4-20.json",
        "configuration/ConstraintImpact/DemoOrder-C5-10.json",
        "configuration/ConstraintImpact/DemoOrder-C6-10.json",
        "configuration/ConstraintImpact/DemoOrder-C7-10.json",
        "configuration/ConstraintImpact/DemoOrder-C7-20.json",
        "configuration/DocIndex/B-demoCtcFile.json",
        "configuration/DocIndexMIME/B-demoCtcFile-application_sl_msword-doc.json",
        "configuration/DocIndexMIME/B-demoCtcFile-application_sl_pdf-pdf.json",
        "configuration/DocIndexMIME/B-demoCtcFile-application_sl_vnd.openxmlformats-officedocument.wordprocessingml.document-docx.json",
        "configuration/PrintTemplate/DemoContact-Excel-ANY.json",
        "configuration/PrintTemplate/DemoContact-HTML-ANY.json",
        "configuration/PrintTemplate/DemoOrder-PDF-ANY.json",
        "configuration/PrintTemplate/DemoOrder-XML-ANY.json",
        "configuration/PrintTemplate/DemoProduct-EMAIL-ENU.json",
        "configuration/PrintTemplate/DemoProduct-EMAIL-FRA.json",
        "configuration/PrintTemplate/DemoProduct-Word-ANY.json",
        "configuration/PrintTemplate/DemoSupplier-CATALOG-ANY.json",
        "configuration/PrintTemplateGroup/DemoOrder-XML-ANY-DEMO_ADMIN.json",
        "configuration/PrintTemplateGroup/DemoProduct-Word-ANY-DEMO_ADMIN.json",
        "configuration/BPMProcess/DemoOrderCreate.json",
        "configuration/BPMActivity/DemoOrderCreate-ORDC-000.json",
        "configuration/BPMActivity/DemoOrderCreate-ORDC-100.json",
        "configuration/BPMActivity/DemoOrderCreate-ORDC-200.json",
        "configuration/BPMActivity/DemoOrderCreate-ORDC-210.json",
        "configuration/BPMActivity/DemoOrderCreate-ORDC-300.json",
        "configuration/BPMActivity/DemoOrderCreate-ORDC-999.json",
        "configuration/BPMTransition/DemoOrderCreate-ORDC-000-ORDC-100.json",
        "configuration/BPMTransition/DemoOrderCreate-ORDC-100-ORDC-200.json",
        "configuration/BPMTransition/DemoOrderCreate-ORDC-200-ORDC-210.json",
        "configuration/BPMTransition/DemoOrderCreate-ORDC-210-ORDC-300.json",
        "configuration/BPMTransition/DemoOrderCreate-ORDC-300-ORDC-999.json",
        "configuration/BPMData/DemoOrderCreate-ORDC-100-Constraint-Mandatory.json",
        "configuration/BPMData/DemoOrderCreate-ORDC-100-Object-Name.json",
        "configuration/BPMData/DemoOrderCreate-ORDC-200-Constraint-Mandatory.json",
        "configuration/BPMData/DemoOrderCreate-ORDC-200-Object-Name.json",
        "configuration/BPMData/DemoOrderCreate-ORDC-210-Constraint-Mandatory.json",
        "configuration/BPMData/DemoOrderCreate-ORDC-210-Filter-demoPrdSupId.json",
        "configuration/BPMData/DemoOrderCreate-ORDC-210-Object-Name.json",
        "configuration/BPMData/DemoOrderCreate-ORDC-300-Field-demoOrdCliId.json",
        "configuration/BPMData/DemoOrderCreate-ORDC-300-Field-demoOrdPrdId.json",
        "configuration/BPMData/DemoOrderCreate-ORDC-300-Object-Name.json",
        "configuration/BPMData/DemoOrderCreate-ORDC-999-Forward-PARAM_cl_1.json",
        "configuration/BPMData/DemoOrderCreate-ORDC-999-Forward-Page.json",
        "configuration/BPMAlert/DemoOrderCancellation.json",
        "configuration/BPMAlert/DemoOrderDelivery.json",
        "configuration/BPMAlertContent/DemoOrderCancellation-ENU.json",
        "configuration/BPMAlertContent/DemoOrderCancellation-FRA.json",
        "configuration/BPMAlertContent/DemoOrderDelivery-ENU.json",
        "configuration/BPMAlertContent/DemoOrderDelivery-FRA.json",
        "configuration/BPMRecipient/DemoOrderCancellation-1.json",
        "configuration/BPMRecipient/DemoOrderDelivery-1.json",
        "configuration/BPMHelp/DemoOrderCreate-ORDC-100-FRA.json",
        "configuration/BPMHelp/DemoOrderCreate-ORDC-100-ENU.json",
        "configuration/BPMHelp/DemoOrderCreate-ORDC-200-FRA.json",
        "configuration/BPMHelp/DemoOrderCreate-ORDC-200-ENU.json",
        "configuration/BPMHelp/DemoOrderCreate-ORDC-210-FRA.json",
        "configuration/BPMHelp/DemoOrderCreate-ORDC-210-ENU.json",
        "configuration/BPMHelp/DemoOrderCreate-ORDC-300-FRA.json",
        "configuration/BPMHelp/DemoOrderCreate-ORDC-300-ENU.json",
        "configuration/BPMGrantActivity/DemoOrderCreate-ORDC-000-DEMO_ADMIN.json",
        "configuration/BPMGrantActivity/DemoOrderCreate-ORDC-100-DEMO_ADMIN.json",
        "configuration/BPMGrantActivity/DemoOrderCreate-ORDC-200-DEMO_ADMIN.json",
        "configuration/BPMGrantActivity/DemoOrderCreate-ORDC-210-DEMO_ADMIN.json",
        "configuration/BPMGrantActivity/DemoOrderCreate-ORDC-300-DEMO_ADMIN.json",
        "configuration/BPMGrantActivity/DemoOrderCreate-ORDC-999-DEMO_ADMIN.json",
        "configuration/BPMGrantActivity/DemoOrderCreate-ORDC-000-DEMO_USER.json",
        "configuration/BPMGrantActivity/DemoOrderCreate-ORDC-100-DEMO_USER.json",
        "configuration/BPMGrantActivity/DemoOrderCreate-ORDC-200-DEMO_USER.json",
        "configuration/BPMGrantActivity/DemoOrderCreate-ORDC-210-DEMO_USER.json",
        "configuration/BPMGrantActivity/DemoOrderCreate-ORDC-300-DEMO_USER.json",
        "configuration/BPMGrantActivity/DemoOrderCreate-ORDC-999-DEMO_USER.json",
        "configuration/BPMGrantProcess/DemoOrderCreate-DEMO_ADMIN.json",
        "configuration/BPMGrantProcess/DemoOrderCreate-DEMO_USER.json",
        "configuration/BPMState/DEMO_CTC_STATUS-C.json",
        "configuration/BPMState/DEMO_CTC_STATUS-O.json",
        "configuration/BPMState/DEMO_CTC_STATUS-P.json",
        "configuration/BPMState/DEMO_ORD_STATUS-C.json",
        "configuration/BPMState/DEMO_ORD_STATUS-D.json",
        "configuration/BPMState/DEMO_ORD_STATUS-H.json",
        "configuration/BPMState/DEMO_ORD_STATUS-P.json",
        "configuration/BPMState/DEMO_ORD_STATUS-V.json",
        "configuration/BPMStateTransition/DEMO_CTC_STATUS-C-O.json",
        "configuration/BPMStateTransition/DEMO_CTC_STATUS-O-C.json",
        "configuration/BPMStateTransition/DEMO_CTC_STATUS-O-P.json",
        "configuration/BPMStateTransition/DEMO_CTC_STATUS-P-C.json",
        "configuration/BPMStateTransition/DEMO_CTC_STATUS-P-O.json",
        "configuration/BPMStateTransition/DEMO_ORD_STATUS-C-P.json",
        "configuration/BPMStateTransition/DEMO_ORD_STATUS-C-V.json",
        "configuration/BPMStateTransition/DEMO_ORD_STATUS-H-P.json",
        "configuration/BPMStateTransition/DEMO_ORD_STATUS-H-V.json",
        "configuration/BPMStateTransition/DEMO_ORD_STATUS-P-C.json",
        "configuration/BPMStateTransition/DEMO_ORD_STATUS-P-H.json",
        "configuration/BPMStateTransition/DEMO_ORD_STATUS-P-V.json",
        "configuration/BPMStateTransition/DEMO_ORD_STATUS-V-C.json",
        "configuration/BPMStateTransition/DEMO_ORD_STATUS-V-D.json",
        "configuration/BPMStateTransition/DEMO_ORD_STATUS-V-H.json",
        "configuration/BPMStateTransition/DEMO_ORD_STATUS-V-P.json",
        "configuration/BPMStateTranGroup/DEMO_CTC_STATUS-C-O-DEMO_ADMIN.json",
        "configuration/BPMStateTranGroup/DEMO_CTC_STATUS-O-C-DEMO_ADMIN.json",
        "configuration/BPMStateTranGroup/DEMO_CTC_STATUS-O-C-DEMO_USER.json",
        "configuration/BPMStateTranGroup/DEMO_CTC_STATUS-O-P-DEMO_ADMIN.json",
        "configuration/BPMStateTranGroup/DEMO_CTC_STATUS-O-P-DEMO_USER.json",
        "configuration/BPMStateTranGroup/DEMO_CTC_STATUS-P-C-DEMO_ADMIN.json",
        "configuration/BPMStateTranGroup/DEMO_CTC_STATUS-P-C-DEMO_USER.json",
        "configuration/BPMStateTranGroup/DEMO_CTC_STATUS-P-O-DEMO_ADMIN.json",
        "configuration/BPMStateTranGroup/DEMO_ORD_STATUS-C-P-DEMO_ADMIN.json",
        "configuration/BPMStateTranGroup/DEMO_ORD_STATUS-C-V-DEMO_ADMIN.json",
        "configuration/BPMStateTranGroup/DEMO_ORD_STATUS-H-P-DEMO_ADMIN.json",
        "configuration/BPMStateTranGroup/DEMO_ORD_STATUS-H-V-DEMO_ADMIN.json",
        "configuration/BPMStateTranGroup/DEMO_ORD_STATUS-P-C-DEMO_ADMIN.json",
        "configuration/BPMStateTranGroup/DEMO_ORD_STATUS-P-C-DEMO_USER.json",
        "configuration/BPMStateTranGroup/DEMO_ORD_STATUS-P-H-DEMO_ADMIN.json",
        "configuration/BPMStateTranGroup/DEMO_ORD_STATUS-P-V-DEMO_ADMIN.json",
        "configuration/BPMStateTranGroup/DEMO_ORD_STATUS-V-C-DEMO_ADMIN.json",
        "configuration/BPMStateTranGroup/DEMO_ORD_STATUS-V-C-DEMO_USER.json",
        "configuration/BPMStateTranGroup/DEMO_ORD_STATUS-V-D-DEMO_ADMIN.json",
        "configuration/BPMStateTranGroup/DEMO_ORD_STATUS-V-D-DEMO_USER.json",
        "configuration/BPMStateTranGroup/DEMO_ORD_STATUS-V-H-DEMO_ADMIN.json",
        "configuration/BPMStateTranGroup/DEMO_ORD_STATUS-V-P-DEMO_ADMIN.json",
        "configuration/Crosstab/DemoOrder-TC1.json",
        "configuration/Crosstab/DemoOrder-TC2.json",
        "configuration/Crosstab/DemoOrder-TC3.json",
        "configuration/Crosstab/DemoOrder-TC4.json",
        "configuration/CrosstabAxis/DemoOrder-TC1-C-1.json",
        "configuration/CrosstabAxis/DemoOrder-TC1-L-1.json",
        "configuration/CrosstabAxis/DemoOrder-TC2-C-1.json",
        "configuration/CrosstabAxis/DemoOrder-TC2-L-1.json",
        "configuration/CrosstabAxis/DemoOrder-TC2-L-2.json",
        "configuration/CrosstabAxis/DemoOrder-TC2-V-1.json",
        "configuration/CrosstabAxis/DemoOrder-TC2-V-2.json",
        "configuration/CrosstabAxis/DemoOrder-TC3-C-1.json",
        "configuration/CrosstabAxis/DemoOrder-TC3-L-1.json",
        "configuration/CrosstabAxis/DemoOrder-TC3-V-1.json",
        "configuration/CrosstabAxis/DemoOrder-TC3-V-2.json",
        "configuration/CrosstabAxis/DemoOrder-TC4-C-1.json",
        "configuration/CrosstabAxis/DemoOrder-TC4-V-1.json",
        "configuration/CrosstabGroup/DemoOrder-TC1-DEMO_ADMIN.json",
        "configuration/CrosstabGroup/DemoOrder-TC1-DEMO_USER.json",
        "configuration/CrosstabGroup/DemoOrder-TC2-DEMO_ADMIN.json",
        "configuration/CrosstabGroup/DemoOrder-TC2-DEMO_USER.json",
        "configuration/CrosstabGroup/DemoOrder-TC3-DEMO_ADMIN.json",
        "configuration/CrosstabGroup/DemoOrder-TC3-DEMO_USER.json",
        "configuration/CrosstabGroup/DemoOrder-TC4-DEMO_ADMIN.json",
        "configuration/CrosstabGroup/DemoOrder-TC4-DEMO_USER.json",
        "configuration/Research/DemoContact-S1-DemoContact-designer.json",
        "configuration/Research/DemoOrder-S1-DemoOrder-designer.json",
        "configuration/Research/DemoOrder-S2-DemoOrder-designer.json",
        "configuration/Map/DemoDomain-DemoSupplier.json",
        "configuration/Map/DemoDomain-DemoProduct.json",
        "configuration/Map/DemoDomain-DemoClient.json",
        "configuration/Map/DemoDomain-DemoOrder.json",
        "configuration/Map/DemoDomain-DemoContact.json",
        "configuration/Map/DemoDomain-DemoOrderCreate.json",
        "configuration/Map/DemoDomain-DemoPlaceNewOrder.json",
        "configuration/Map/DemoDomain-DemoOrderAgenda.json",
        "configuration/ViewItem/DemoAdminHome-1.json",
        "configuration/ViewItem/DemoAdminHome-2.json",
        "configuration/ViewItem/DemoAdminHome-3.json",
        "configuration/ViewItem/DemoHome-1.json",
        "configuration/ViewItem/DemoHome-2.json",
        "configuration/ViewItem/DemoHome-3.json",
        "configuration/ViewItem/DemoHome-4.json",
        "configuration/ViewItem/DemoHome-5.json",
        "configuration/ViewItem/DemoUserHome-1.json",
        "configuration/ViewItem/DemoUserHome-2.json",
        "configuration/ViewItem/DemoUserHome-3.json",
        "configuration/ViewGroup/DemoAdminHome-DEMO_ADMIN.json",
        "configuration/ViewGroup/DemoUserHome-DEMO_USER.json",
        "configuration/Agenda/DemoOrderAgenda.json",
        "configuration/PlaceMap/DemoClients.json",
        "configuration/ObjectCtxHelp/DemoClient-U-ENU.json",
        "configuration/ObjectCtxHelp/DemoClient-U-FRA.json",
        "configuration/ObjectCtxHelp/DemoOrder-L-ENU.json",
        "configuration/ObjectCtxHelp/DemoOrder-L-FRA.json",
        "configuration/ObjectCtxHelp/DemoOrder-S-ENU.json",
        "configuration/ObjectCtxHelp/DemoOrder-S-FRA.json",
        "configuration/TreeView/DemoClientTreeview.json",
        "configuration/TreeView/DemoSupplierTreeview.json",
        "configuration/TreeViewObject/DemoClientTreeview-1.json",
        "configuration/TreeViewObject/DemoClientTreeview-2.json",
        "configuration/TreeViewObject/DemoClientTreeview-3.json",
        "configuration/TreeViewObject/DemoSupplierTreeview-1.json",
        "configuration/TreeViewObject/DemoSupplierTreeview-2.json",
        "configuration/TreeViewObject/DemoSupplierTreeview-3.json",
        "configuration/Resource/Disposition-default-DEMO_PRINT_STYLES-ANY.json",
        "configuration/Resource/Disposition-default-demo-ANY.json",
        "configuration/Resource/Disposition-default-demo-module-ANY.json",
        "configuration/Resource/Disposition-default-demo-module-screenshot-ANY.json",
        "configuration/Resource/Disposition-default-DEMO_LOGO-ANY.json",
        "configuration/Resource/ObjectExternal-DemoOrderAgenda-HTML-ANY.json",
        "configuration/Resource/ObjectExternal-DemoOrderAgenda-SCRIPT-ANY.json",
        "configuration/Resource/ObjectExternal-DemoPlaceNewOrder-STYLES-ANY.json",
        "configuration/Resource/ObjectExternal-DemoPlaceNewOrder-HTML-ANY.json",
        "configuration/Resource/ObjectExternal-DemoPlaceNewOrder-SCRIPT-ANY.json",
        "configuration/Resource/ObjectInternal-DemoClient-STYLES-ANY.json",
        "configuration/Resource/ObjectInternal-DemoClient-SCRIPT-ANY.json",
        "configuration/Resource/ObjectInternal-DemoContact-PRINT-ANY.json",
        "configuration/Resource/ObjectInternal-DemoOrder-SCRIPT-ANY.json",
        "configuration/Adapter/DemoAdapter.json",
        "configuration/Script/DemoCommon.json",
        "configuration/Script/DemoTests.json",
        "configuration/ModelTemplateObject/DemoModel-DemoModel_Client.json",
        "configuration/ModelTemplateObject/DemoModel-DemoModel_Product.json",
        "configuration/ModelTemplateObject/DemoModel-DemoModel_Supplier.json",
        "configuration/ModelTemplateLink/DemoModel-DemoModel_Order.json",
        "configuration/ModelTemplateLink/DemoModel-DemoModel_SupplierProduct.json",
        "configuration/ModelTemplateGroup/DemoModel-DEMO_ADMIN.json",
        "configuration/TranslateAction/DEMO_CLIENTMAP-ENU.json",
        "configuration/TranslateAction/DEMO_CTC_STATUS-O-C-ENU.json",
        "configuration/TranslateAction/DEMO_CTC_STATUS-O-P-ENU.json",
        "configuration/TranslateAction/DEMO_CTC_STATUS-P-C-ENU.json",
        "configuration/TranslateAction/DEMO_DECSTOCK-ENU.json",
        "configuration/TranslateAction/DEMO_INCSTOCK-ENU.json",
        "configuration/TranslateAction/DEMO_ORD_STATUS-P-C-ENU.json",
        "configuration/TranslateAction/DEMO_ORD_STATUS-P-V-ENU.json",
        "configuration/TranslateAction/DEMO_ORD_STATUS-V-C-ENU.json",
        "configuration/TranslateAction/DEMO_ORD_STATUS-V-D-ENU.json",
        "configuration/TranslateAction/DEMO_CLIENTMAP-FRA.json",
        "configuration/TranslateAction/DEMO_CTC_STATUS-O-C-FRA.json",
        "configuration/TranslateAction/DEMO_CTC_STATUS-O-P-FRA.json",
        "configuration/TranslateAction/DEMO_CTC_STATUS-P-C-FRA.json",
        "configuration/TranslateAction/DEMO_DECSTOCK-FRA.json",
        "configuration/TranslateAction/DEMO_INCSTOCK-FRA.json",
        "configuration/TranslateAction/DEMO_ORD_STATUS-P-C-FRA.json",
        "configuration/TranslateAction/DEMO_ORD_STATUS-P-V-FRA.json",
        "configuration/TranslateAction/DEMO_ORD_STATUS-V-C-FRA.json",
        "configuration/TranslateAction/DEMO_ORD_STATUS-V-D-FRA.json",
        "configuration/TranslateCrosstab/DemoOrder-TC1-ENU.json",
        "configuration/TranslateCrosstab/DemoOrder-TC2-ENU.json",
        "configuration/TranslateCrosstab/DemoOrder-TC3-ENU.json",
        "configuration/TranslateCrosstab/DemoOrder-TC4-ENU.json",
        "configuration/TranslateCrosstab/DemoOrder-TC1-FRA.json",
        "configuration/TranslateCrosstab/DemoOrder-TC2-FRA.json",
        "configuration/TranslateCrosstab/DemoOrder-TC3-FRA.json",
        "configuration/TranslateCrosstab/DemoOrder-TC4-FRA.json",
        "configuration/TranslateCrosstabAxis/DemoOrder-TC3-V-1-ENU.json",
        "configuration/TranslateCrosstabAxis/DemoOrder-TC3-V-2-ENU.json",
        "configuration/TranslateCrosstabAxis/DemoOrder-TC3-V-1-FRA.json",
        "configuration/TranslateCrosstabAxis/DemoOrder-TC3-V-2-FRA.json",
        "configuration/TranslateField/demoCliAddress1-ENU.json",
        "configuration/TranslateField/demoCliAddress2-ENU.json",
        "configuration/TranslateField/demoCliCity-ENU.json",
        "configuration/TranslateField/demoCliCode-ENU.json",
        "configuration/TranslateField/demoCliComments-ENU.json",
        "configuration/TranslateField/demoCliCoords-ENU.json",
        "configuration/TranslateField/demoCliCountry-ENU.json",
        "configuration/TranslateField/demoCliEmail-ENU.json",
        "configuration/TranslateField/demoCliFax-ENU.json",
        "configuration/TranslateField/demoCliFirstname-ENU.json",
        "configuration/TranslateField/demoCliHomePhone-ENU.json",
        "configuration/TranslateField/demoCliLastname-ENU.json",
        "configuration/TranslateField/demoCliMobilePhone-ENU.json",
        "configuration/TranslateField/demoCliPlacemapLabel-ENU.json",
        "configuration/TranslateField/demoCliType-ENU.json",
        "configuration/TranslateField/demoCliWorkPhone-ENU.json",
        "configuration/TranslateField/demoCliZipCode-ENU.json",
        "configuration/TranslateField/demoCtcCanal-ENU.json",
        "configuration/TranslateField/demoCtcCliId-ENU.json",
        "configuration/TranslateField/demoCtcComments-ENU.json",
        "configuration/TranslateField/demoCtcDatetime-ENU.json",
        "configuration/TranslateField/demoCtcFile-ENU.json",
        "configuration/TranslateField/demoCtcOrdId-ENU.json",
        "configuration/TranslateField/demoCtcPriority-ENU.json",
        "configuration/TranslateField/demoCtcStatus-ENU.json",
        "configuration/TranslateField/demoCtcSubType-ENU.json",
        "configuration/TranslateField/demoCtcType-ENU.json",
        "configuration/TranslateField/demoOrdCliId-ENU.json",
        "configuration/TranslateField/demoOrdComments-ENU.json",
        "configuration/TranslateField/demoOrdDate-ENU.json",
        "configuration/TranslateField/demoOrdDeliveryDate-ENU.json",
        "configuration/TranslateField/demoOrdNumber-ENU.json",
        "configuration/TranslateField/demoOrdPrdId-ENU.json",
        "configuration/TranslateField/demoOrdQuantity-ENU.json",
        "configuration/TranslateField/demoOrdStatus-ENU.json",
        "configuration/TranslateField/demoOrdTotal-ENU.json",
        "configuration/TranslateField/demoOrdUnitPrice-ENU.json",
        "configuration/TranslateField/demoOrdVAT-ENU.json",
        "configuration/TranslateField/demoPrdAvailable-ENU.json",
        "configuration/TranslateField/demoPrdBrochure-ENU.json",
        "configuration/TranslateField/demoPrdComments-ENU.json",
        "configuration/TranslateField/demoPrdDescription-ENU.json",
        "configuration/TranslateField/demoPrdDocumentation-ENU.json",
        "configuration/TranslateField/demoPrdIncrement-ENU.json",
        "configuration/TranslateField/demoPrdName-ENU.json",
        "configuration/TranslateField/demoPrdOnlineDoc-ENU.json",
        "configuration/TranslateField/demoPrdPicture-ENU.json",
        "configuration/TranslateField/demoPrdReference-ENU.json",
        "configuration/TranslateField/demoPrdStock-ENU.json",
        "configuration/TranslateField/demoPrdSupId-ENU.json",
        "configuration/TranslateField/demoPrdType-ENU.json",
        "configuration/TranslateField/demoPrdUnitPrice-ENU.json",
        "configuration/TranslateField/demoSupCode-ENU.json",
        "configuration/TranslateField/demoSupComments-ENU.json",
        "configuration/TranslateField/demoSupDescription-ENU.json",
        "configuration/TranslateField/demoSupEmail-ENU.json",
        "configuration/TranslateField/demoSupFax-ENU.json",
        "configuration/TranslateField/demoSupLogo-ENU.json",
        "configuration/TranslateField/demoSupName-ENU.json",
        "configuration/TranslateField/demoSupPhone-ENU.json",
        "configuration/TranslateField/demoSupUsrId-ENU.json",
        "configuration/TranslateField/demoSupWebsite-ENU.json",
        "configuration/TranslateField/uft_demoSupId-ENU.json",
        "configuration/TranslateField/demoCliAddress1-FRA.json",
        "configuration/TranslateField/demoCliAddress2-FRA.json",
        "configuration/TranslateField/demoCliCity-FRA.json",
        "configuration/TranslateField/demoCliCode-FRA.json",
        "configuration/TranslateField/demoCliComments-FRA.json",
        "configuration/TranslateField/demoCliCoords-FRA.json",
        "configuration/TranslateField/demoCliCountry-FRA.json",
        "configuration/TranslateField/demoCliEmail-FRA.json",
        "configuration/TranslateField/demoCliFax-FRA.json",
        "configuration/TranslateField/demoCliFirstname-FRA.json",
        "configuration/TranslateField/demoCliHomePhone-FRA.json",
        "configuration/TranslateField/demoCliLastname-FRA.json",
        "configuration/TranslateField/demoCliMobilePhone-FRA.json",
        "configuration/TranslateField/demoCliPlacemapLabel-FRA.json",
        "configuration/TranslateField/demoCliType-FRA.json",
        "configuration/TranslateField/demoCliWorkPhone-FRA.json",
        "configuration/TranslateField/demoCliZipCode-FRA.json",
        "configuration/TranslateField/demoCtcCanal-FRA.json",
        "configuration/TranslateField/demoCtcCliId-FRA.json",
        "configuration/TranslateField/demoCtcComments-FRA.json",
        "configuration/TranslateField/demoCtcDatetime-FRA.json",
        "configuration/TranslateField/demoCtcFile-FRA.json",
        "configuration/TranslateField/demoCtcOrdId-FRA.json",
        "configuration/TranslateField/demoCtcPriority-FRA.json",
        "configuration/TranslateField/demoCtcStatus-FRA.json",
        "configuration/TranslateField/demoCtcSubType-FRA.json",
        "configuration/TranslateField/demoCtcType-FRA.json",
        "configuration/TranslateField/demoOrdCliId-FRA.json",
        "configuration/TranslateField/demoOrdComments-FRA.json",
        "configuration/TranslateField/demoOrdDate-FRA.json",
        "configuration/TranslateField/demoOrdDeliveryDate-FRA.json",
        "configuration/TranslateField/demoOrdNumber-FRA.json",
        "configuration/TranslateField/demoOrdPrdId-FRA.json",
        "configuration/TranslateField/demoOrdQuantity-FRA.json",
        "configuration/TranslateField/demoOrdStatus-FRA.json",
        "configuration/TranslateField/demoOrdTotal-FRA.json",
        "configuration/TranslateField/demoOrdUnitPrice-FRA.json",
        "configuration/TranslateField/demoOrdVAT-FRA.json",
        "configuration/TranslateField/demoPrdAvailable-FRA.json",
        "configuration/TranslateField/demoPrdBrochure-FRA.json",
        "configuration/TranslateField/demoPrdComments-FRA.json",
        "configuration/TranslateField/demoPrdDescription-FRA.json",
        "configuration/TranslateField/demoPrdDocumentation-FRA.json",
        "configuration/TranslateField/demoPrdIncrement-FRA.json",
        "configuration/TranslateField/demoPrdName-FRA.json",
        "configuration/TranslateField/demoPrdOnlineDoc-FRA.json",
        "configuration/TranslateField/demoPrdPicture-FRA.json",
        "configuration/TranslateField/demoPrdReference-FRA.json",
        "configuration/TranslateField/demoPrdStock-FRA.json",
        "configuration/TranslateField/demoPrdSupId-FRA.json",
        "configuration/TranslateField/demoPrdType-FRA.json",
        "configuration/TranslateField/demoPrdUnitPrice-FRA.json",
        "configuration/TranslateField/demoSupCode-FRA.json",
        "configuration/TranslateField/demoSupComments-FRA.json",
        "configuration/TranslateField/demoSupDescription-FRA.json",
        "configuration/TranslateField/demoSupEmail-FRA.json",
        "configuration/TranslateField/demoSupFax-FRA.json",
        "configuration/TranslateField/demoSupLogo-FRA.json",
        "configuration/TranslateField/demoSupName-FRA.json",
        "configuration/TranslateField/demoSupPhone-FRA.json",
        "configuration/TranslateField/demoSupUsrId-FRA.json",
        "configuration/TranslateField/demoSupWebsite-FRA.json",
        "configuration/TranslateField/uft_demoSupId-FRA.json",
        "configuration/TranslateFieldArea/DemoClient-1-ENU.json",
        "configuration/TranslateFieldArea/DemoClient-2-ENU.json",
        "configuration/TranslateFieldArea/DemoClient-3-ENU.json",
        "configuration/TranslateFieldArea/DemoClient-4-ENU.json",
        "configuration/TranslateFieldArea/DemoContact-1-ENU.json",
        "configuration/TranslateFieldArea/DemoContact-2-ENU.json",
        "configuration/TranslateFieldArea/DemoContact-3-ENU.json",
        "configuration/TranslateFieldArea/DemoContact-4-ENU.json",
        "configuration/TranslateFieldArea/DemoOrder-1-ENU.json",
        "configuration/TranslateFieldArea/DemoOrder-2-ENU.json",
        "configuration/TranslateFieldArea/DemoOrder-3-ENU.json",
        "configuration/TranslateFieldArea/DemoOrder-4-ENU.json",
        "configuration/TranslateFieldArea/DemoOrder-5-ENU.json",
        "configuration/TranslateFieldArea/DemoProduct-1-ENU.json",
        "configuration/TranslateFieldArea/DemoProduct-2-ENU.json",
        "configuration/TranslateFieldArea/DemoProduct-3-ENU.json",
        "configuration/TranslateFieldArea/DemoProduct-4-ENU.json",
        "configuration/TranslateFieldArea/DemoProduct-5-ENU.json",
        "configuration/TranslateFieldArea/DemoSupplier-1-ENU.json",
        "configuration/TranslateFieldArea/DemoSupplier-2-ENU.json",
        "configuration/TranslateFieldArea/DemoSupplier-3-ENU.json",
        "configuration/TranslateFieldArea/DemoClient-1-FRA.json",
        "configuration/TranslateFieldArea/DemoClient-2-FRA.json",
        "configuration/TranslateFieldArea/DemoClient-3-FRA.json",
        "configuration/TranslateFieldArea/DemoClient-4-FRA.json",
        "configuration/TranslateFieldArea/DemoContact-1-FRA.json",
        "configuration/TranslateFieldArea/DemoContact-2-FRA.json",
        "configuration/TranslateFieldArea/DemoContact-3-FRA.json",
        "configuration/TranslateFieldArea/DemoContact-4-FRA.json",
        "configuration/TranslateFieldArea/DemoOrder-1-FRA.json",
        "configuration/TranslateFieldArea/DemoOrder-2-FRA.json",
        "configuration/TranslateFieldArea/DemoOrder-3-FRA.json",
        "configuration/TranslateFieldArea/DemoOrder-4-FRA.json",
        "configuration/TranslateFieldArea/DemoOrder-5-FRA.json",
        "configuration/TranslateFieldArea/DemoProduct-1-FRA.json",
        "configuration/TranslateFieldArea/DemoProduct-2-FRA.json",
        "configuration/TranslateFieldArea/DemoProduct-3-FRA.json",
        "configuration/TranslateFieldArea/DemoProduct-4-FRA.json",
        "configuration/TranslateFieldArea/DemoProduct-5-FRA.json",
        "configuration/TranslateFieldArea/DemoSupplier-1-FRA.json",
        "configuration/TranslateFieldArea/DemoSupplier-2-FRA.json",
        "configuration/TranslateFieldArea/DemoSupplier-3-FRA.json",
        "configuration/TranslateDomain/DemoDomain-ENU.json",
        "configuration/TranslateDomain/DemoSubDomain-ENU.json",
        "configuration/TranslateDomain/DemoDomain-FRA.json",
        "configuration/TranslateDomain/DemoSubDomain-FRA.json",
        "configuration/TranslateObject/DemoClient-ENU.json",
        "configuration/TranslateObject/DemoContact-ENU.json",
        "configuration/TranslateObject/DemoContactHistoric-ENU.json",
        "configuration/TranslateObject/DemoOrder-ENU.json",
        "configuration/TranslateObject/DemoOrderHistoric-ENU.json",
        "configuration/TranslateObject/DemoProduct-ENU.json",
        "configuration/TranslateObject/DemoProductHistoric-ENU.json",
        "configuration/TranslateObject/DemoSupplier-ENU.json",
        "configuration/TranslateObject/DemoClient-FRA.json",
        "configuration/TranslateObject/DemoContact-FRA.json",
        "configuration/TranslateObject/DemoContactHistoric-FRA.json",
        "configuration/TranslateObject/DemoOrder-FRA.json",
        "configuration/TranslateObject/DemoOrderHistoric-FRA.json",
        "configuration/TranslateObject/DemoProduct-FRA.json",
        "configuration/TranslateObject/DemoProductHistoric-FRA.json",
        "configuration/TranslateObject/DemoSupplier-FRA.json",
        "configuration/TranslateExternal/DemoCatalog-ENU.json",
        "configuration/TranslateExternal/DemoOrderAgenda-ENU.json",
        "configuration/TranslateExternal/DemoPlaceNewOrder-ENU.json",
        "configuration/TranslateExternal/DemoCatalog-FRA.json",
        "configuration/TranslateExternal/DemoOrderAgenda-FRA.json",
        "configuration/TranslateExternal/DemoPlaceNewOrder-FRA.json",
        "configuration/TranslateShortcut/DemoClientNew-ENU.json",
        "configuration/TranslateShortcut/DemoDoc-ENU.json",
        "configuration/TranslateShortcut/DemoOrderNew-ENU.json",
        "configuration/TranslateShortcut/DemoProductNew-ENU.json",
        "configuration/TranslateShortcut/DemoClientNew-FRA.json",
        "configuration/TranslateShortcut/DemoDoc-FRA.json",
        "configuration/TranslateShortcut/DemoOrderNew-FRA.json",
        "configuration/TranslateShortcut/DemoProductNew-FRA.json",
        "configuration/TranslateObjectField/DemoContact-demoCliCode-210-ENU.json",
        "configuration/TranslateObjectField/DemoContact-demoCliFirstname-220-ENU.json",
        "configuration/TranslateObjectField/DemoContact-demoCliLastname-230-ENU.json",
        "configuration/TranslateObjectField/DemoContact-demoCliEmail-240-ENU.json",
        "configuration/TranslateObjectField/DemoContact-demoCliHomePhone-250-ENU.json",
        "configuration/TranslateObjectField/DemoContact-demoCliWorkPhone-260-ENU.json",
        "configuration/TranslateObjectField/DemoContact-demoCliMobilePhone-270-ENU.json",
        "configuration/TranslateObjectField/DemoContact-demoCliFax-280-ENU.json",
        "configuration/TranslateObjectField/DemoContact-demoOrdNumber-310-ENU.json",
        "configuration/TranslateObjectField/DemoContact-demoOrdDate-320-ENU.json",
        "configuration/TranslateObjectField/DemoContact-demoOrdStatus-330-ENU.json",
        "configuration/TranslateObjectField/DemoContact-demoOrdCliId-340-ENU.json",
        "configuration/TranslateObjectField/DemoContact-demoOrdPrdId-350-ENU.json",
        "configuration/TranslateObjectField/DemoContact-demoPrdSupId-360-ENU.json",
        "configuration/TranslateObjectField/DemoContact-demoSupUsrId-365-ENU.json",
        "configuration/TranslateObjectField/DemoContact-demoPrdReference-370-ENU.json",
        "configuration/TranslateObjectField/DemoContact-demoPrdName-380-ENU.json",
        "configuration/TranslateObjectField/DemoContact-demoOrdQuantity-390-ENU.json",
        "configuration/TranslateObjectField/DemoOrder-demoCliCode-210-ENU.json",
        "configuration/TranslateObjectField/DemoOrder-demoCliFirstname-220-ENU.json",
        "configuration/TranslateObjectField/DemoOrder-demoCliLastname-230-ENU.json",
        "configuration/TranslateObjectField/DemoOrder-demoCliEmail-240-ENU.json",
        "configuration/TranslateObjectField/DemoOrder-demoCliAddress1-250-ENU.json",
        "configuration/TranslateObjectField/DemoOrder-demoCliAddress2-251-ENU.json",
        "configuration/TranslateObjectField/DemoOrder-demoCliZipCode-253-ENU.json",
        "configuration/TranslateObjectField/DemoOrder-demoCliCity-254-ENU.json",
        "configuration/TranslateObjectField/DemoOrder-demoCliCountry-255-ENU.json",
        "configuration/TranslateObjectField/DemoOrder-demoPrdReference-310-ENU.json",
        "configuration/TranslateObjectField/DemoOrder-demoPrdName-320-ENU.json",
        "configuration/TranslateObjectField/DemoOrder-demoPrdPicture-330-ENU.json",
        "configuration/TranslateObjectField/DemoOrder-demoPrdSupId-340-ENU.json",
        "configuration/TranslateObjectField/DemoOrder-demoSupCode-350-ENU.json",
        "configuration/TranslateObjectField/DemoOrder-demoSupName-360-ENU.json",
        "configuration/TranslateObjectField/DemoOrder-demoSupLogo-370-ENU.json",
        "configuration/TranslateObjectField/DemoOrder-demoSupUsrId-375-ENU.json",
        "configuration/TranslateObjectField/DemoOrder-demoPrdUnitPrice-390-ENU.json",
        "configuration/TranslateObjectField/DemoProduct-demoSupCode-110-ENU.json",
        "configuration/TranslateObjectField/DemoProduct-demoSupName-120-ENU.json",
        "configuration/TranslateObjectField/DemoProduct-demoSupUsrId-140-ENU.json",
        "configuration/TranslateObjectField/DemoSupplier-usr_login-310-ENU.json",
        "configuration/TranslateObjectField/DemoContact-demoCliCode-210-FRA.json",
        "configuration/TranslateObjectField/DemoContact-demoCliFirstname-220-FRA.json",
        "configuration/TranslateObjectField/DemoContact-demoCliLastname-230-FRA.json",
        "configuration/TranslateObjectField/DemoContact-demoCliEmail-240-FRA.json",
        "configuration/TranslateObjectField/DemoContact-demoCliHomePhone-250-FRA.json",
        "configuration/TranslateObjectField/DemoContact-demoCliWorkPhone-260-FRA.json",
        "configuration/TranslateObjectField/DemoContact-demoCliMobilePhone-270-FRA.json",
        "configuration/TranslateObjectField/DemoContact-demoCliFax-280-FRA.json",
        "configuration/TranslateObjectField/DemoContact-demoOrdNumber-310-FRA.json",
        "configuration/TranslateObjectField/DemoContact-demoOrdDate-320-FRA.json",
        "configuration/TranslateObjectField/DemoContact-demoOrdStatus-330-FRA.json",
        "configuration/TranslateObjectField/DemoContact-demoOrdCliId-340-FRA.json",
        "configuration/TranslateObjectField/DemoContact-demoOrdPrdId-350-FRA.json",
        "configuration/TranslateObjectField/DemoContact-demoPrdSupId-360-FRA.json",
        "configuration/TranslateObjectField/DemoContact-demoSupUsrId-365-FRA.json",
        "configuration/TranslateObjectField/DemoContact-demoPrdReference-370-FRA.json",
        "configuration/TranslateObjectField/DemoContact-demoPrdName-380-FRA.json",
        "configuration/TranslateObjectField/DemoContact-demoOrdQuantity-390-FRA.json",
        "configuration/TranslateObjectField/DemoOrder-demoCliCode-210-FRA.json",
        "configuration/TranslateObjectField/DemoOrder-demoCliFirstname-220-FRA.json",
        "configuration/TranslateObjectField/DemoOrder-demoCliLastname-230-FRA.json",
        "configuration/TranslateObjectField/DemoOrder-demoCliEmail-240-FRA.json",
        "configuration/TranslateObjectField/DemoOrder-demoCliAddress1-250-FRA.json",
        "configuration/TranslateObjectField/DemoOrder-demoCliAddress2-251-FRA.json",
        "configuration/TranslateObjectField/DemoOrder-demoCliZipCode-253-FRA.json",
        "configuration/TranslateObjectField/DemoOrder-demoCliCity-254-FRA.json",
        "configuration/TranslateObjectField/DemoOrder-demoCliCountry-255-FRA.json",
        "configuration/TranslateObjectField/DemoOrder-demoPrdReference-310-FRA.json",
        "configuration/TranslateObjectField/DemoOrder-demoPrdName-320-FRA.json",
        "configuration/TranslateObjectField/DemoOrder-demoPrdPicture-330-FRA.json",
        "configuration/TranslateObjectField/DemoOrder-demoPrdSupId-340-FRA.json",
        "configuration/TranslateObjectField/DemoOrder-demoSupCode-350-FRA.json",
        "configuration/TranslateObjectField/DemoOrder-demoSupName-360-FRA.json",
        "configuration/TranslateObjectField/DemoOrder-demoSupLogo-370-FRA.json",
        "configuration/TranslateObjectField/DemoOrder-demoSupUsrId-375-FRA.json",
        "configuration/TranslateObjectField/DemoOrder-demoPrdUnitPrice-390-FRA.json",
        "configuration/TranslateObjectField/DemoProduct-demoSupCode-110-FRA.json",
        "configuration/TranslateObjectField/DemoProduct-demoSupName-120-FRA.json",
        "configuration/TranslateObjectField/DemoProduct-demoSupUsrId-140-FRA.json",
        "configuration/TranslateObjectField/DemoSupplier-usr_login-310-FRA.json",
        "configuration/TranslateLink/DemoContact-demoCtcCliId-200-ENU.json",
        "configuration/TranslateLink/DemoOrder-demoOrdCliId-200-ENU.json",
        "configuration/TranslateLink/DemoProduct-demoPrdSupId-100-ENU.json",
        "configuration/TranslateLink/DemoContact-demoCtcCliId-200-FRA.json",
        "configuration/TranslateLink/DemoOrder-demoOrdCliId-200-FRA.json",
        "configuration/TranslateLink/DemoProduct-demoPrdSupId-100-FRA.json",
        "configuration/TranslateResearch/DemoContact-S1-DemoContact-designer-ENU.json",
        "configuration/TranslateResearch/DemoOrder-S1-DemoOrder-designer-ENU.json",
        "configuration/TranslateResearch/DemoOrder-S2-DemoOrder-designer-ENU.json",
        "configuration/TranslateResearch/DemoContact-S1-DemoContact-designer-FRA.json",
        "configuration/TranslateResearch/DemoOrder-S1-DemoOrder-designer-FRA.json",
        "configuration/TranslateResearch/DemoOrder-S2-DemoOrder-designer-FRA.json",
        "configuration/TranslateView/DemoAdminHome-ENU.json",
        "configuration/TranslateView/DemoHome-ENU.json",
        "configuration/TranslateView/DemoUserHome-ENU.json",
        "configuration/TranslateView/DemoAdminHome-FRA.json",
        "configuration/TranslateView/DemoHome-FRA.json",
        "configuration/TranslateView/DemoUserHome-FRA.json",
        "configuration/TranslateTreeView/DemoClientTreeview-ENU.json",
        "configuration/TranslateTreeView/DemoSupplierTreeview-ENU.json",
        "configuration/TranslateTreeView/DemoClientTreeview-FRA.json",
        "configuration/TranslateTreeView/DemoSupplierTreeview-FRA.json",
        "configuration/TranslateDocIndex/B-demoCtcFile-ENU.json",
        "configuration/TranslateDocIndex/B-demoCtcFile-FRA.json",
        "configuration/TranslateActivity/DemoOrderCreate-ORDC-000-ENU.json",
        "configuration/TranslateActivity/DemoOrderCreate-ORDC-100-ENU.json",
        "configuration/TranslateActivity/DemoOrderCreate-ORDC-200-ENU.json",
        "configuration/TranslateActivity/DemoOrderCreate-ORDC-210-ENU.json",
        "configuration/TranslateActivity/DemoOrderCreate-ORDC-300-ENU.json",
        "configuration/TranslateActivity/DemoOrderCreate-ORDC-999-ENU.json",
        "configuration/TranslateActivity/DemoOrderCreate-ORDC-000-FRA.json",
        "configuration/TranslateActivity/DemoOrderCreate-ORDC-100-FRA.json",
        "configuration/TranslateActivity/DemoOrderCreate-ORDC-200-FRA.json",
        "configuration/TranslateActivity/DemoOrderCreate-ORDC-210-FRA.json",
        "configuration/TranslateActivity/DemoOrderCreate-ORDC-300-FRA.json",
        "configuration/TranslateActivity/DemoOrderCreate-ORDC-999-FRA.json",
        "configuration/TranslateProcess/DemoOrderCreate-ENU.json",
        "configuration/TranslateProcess/DemoOrderCreate-FRA.json",
        "configuration/TranslateGroup/DEMO_ADMIN-ENU.json",
        "configuration/TranslateGroup/DEMO_USER-ENU.json",
        "configuration/TranslateGroup/DEMO_ADMIN-FRA.json",
        "configuration/TranslateGroup/DEMO_USER-FRA.json",
        "configuration/MDDocument/DEMO.json",
        "configuration/MDImage/DEMO_LOGO.json",
        "configuration/Dataset/Demo-data.json"
    ],
    "repository": {"origin": {"uri": "https://github.com/simplicitesoftware/module-demo.git"}},
    "version": "5",
    "platform": "5.1.14"
}