{
  "name":"BPMHelp",
  "action":"upsert",
  "data":[{
    "hlp_activity_id.acy_process_id.pcs_name":"DemoOrderCreate",
    "hlp_activity_id.acy_step":"ORDC-200",
    "hlp_activity_id.acy_name":"SupplierSelect",
    "hlp_lang":"ENU",
    "hlp_abstract":"Please select a <b>supplier<\/b>",
    "hlp_content":"",
    "row_module_id.mdl_name":"Demo"
  }]
}