{
  "name":"BPMHelp",
  "action":"upsert",
  "data":[{
    "hlp_activity_id.acy_process_id.pcs_name":"DemoOrderCreate",
    "hlp_activity_id.acy_step":"ORDC-300",
    "hlp_activity_id.acy_name":"OrderCreate",
    "hlp_lang":"ENU",
    "hlp_abstract":"Please enter a <b>quantity<\/b> and, <u>if required<\/u>, add some comments",
    "hlp_content":"",
    "row_module_id.mdl_name":"Demo"
  }]
}