{
  "name":"PrintTemplate",
  "action":"upsert",
  "data":[{
    "prt_object_id.obo_name":"DemoProduct",
    "prt_name":"DemoProduct-EMAIL",
    "prt_usage":"X",
    "prt_visible":"1",
    "prt_grantable":"0",
    "row_module_id.mdl_name":"Demo",
    "prt_lang":"ENU",
    "prt_translation":"Low stock email",
    "prt_filename":"",
    "prt_mimetype":"",
    "prt_type":"TMPL",
    "prt_method":"",
    "prt_file":"",
    "prt_template_id.tpl_name":"DemoProduct-EMAIL-ENU"
  }]
}