{
  "name":"Responsability",
  "action":"upsert",
  "data":[{
    "rsp_login_id.usr_login":"designer",
    "rsp_group_id.grp_name":"DEMO_ADMIN",
    "rsp_start_dt":"2015-02-10",
    "rsp_end_dt":"",
    "rsp_activ":"1",
    "row_module_id.mdl_name":"Demo"
  }]
}