{
  "name":"Responsability",
  "action":"upsert",
  "data":[{
    "rsp_login_id.usr_login":"public",
    "rsp_group_id.grp_name":"DEMO_PUBLIC",
    "rsp_start_dt":"2000-10-01",
    "rsp_end_dt":"",
    "rsp_activ":"1",
    "row_module_id.mdl_name":"Demo"
  }]
}