{
  "name":"CrosstabAxis",
  "action":"upsert",
  "data":[{
    "cax_crosstab_id.ctb_name":"DemoOrder-TC3",
    "cax_objfield_id.obf_object_id.obo_name":"DemoOrder",
    "cax_objfield_id.obf_order":"210",
    "cax_objfield_id.obf_field_id.fld_name":"demoCliCode",
    "cax_type":"L",
    "cax_order":"1",
    "cax_function":"",
    "cax_chart":"",
    "cax_precision":"0",
    "cax_subtotal":"0",
    "cax_formula":"",
    "cax_hidden":"0",
    "cax_objfield_id.obf_field_id.fld_type":"3",
    "cax_dategroup":"",
    "row_module_id.mdl_name":"Demo",
    "cax_unitscale":"",
    "cax_unitfunct":"",
    "cax_unitlabel":"",
    "cax_yaxis":"L"
  }]
}