{
  "name":"TranslateCrosstabAxis",
  "action":"upsert",
  "data":[{
    "tsl_typeCrosstabAxis":"X",
    "tsl_id.cax_crosstab_id.ctb_name":"DemoOrder-TC3",
    "tsl_id.cax_type":"V",
    "tsl_id.cax_order":"1",
    "tsl_lang":"ENU",
    "tsl_value":"Quantity ordered",
    "row_module_id.mdl_name":"Demo"
  }]
}