{
  "name":"TranslateField",
  "action":"upsert",
  "data":[{
    "tsl_typeField":"F",
    "tsl_id.fld_name":"demoCliLastname",
    "tsl_lang":"ENU",
    "tsl_value":"Last name",
    "tsl_simplehelp":"",
    "tsl_short_value":"",
    "tsl_placeholder":"",
    "tsl_listhelp":"",
    "row_module_id.mdl_name":"Demo",
    "tsl_tooltip":""
  }]
}