{
  "name":"TranslateField",
  "action":"upsert",
  "data":[{
    "tsl_typeField":"F",
    "tsl_id.fld_name":"demoCliAddress1",
    "tsl_lang":"ENU",
    "tsl_value":"Address",
    "tsl_simplehelp":"",
    "tsl_short_value":"",
    "tsl_placeholder":"Street, number, ...",
    "tsl_listhelp":"",
    "row_module_id.mdl_name":"Demo",
    "tsl_tooltip":""
  }]
}