{
  "name":"TranslateField",
  "action":"upsert",
  "data":[{
    "tsl_typeField":"F",
    "tsl_id.fld_name":"demoOrdStatus",
    "tsl_lang":"FRA",
    "tsl_value":"Etat",
    "tsl_simplehelp":"",
    "tsl_short_value":"",
    "tsl_placeholder":"",
    "tsl_listhelp":"",
    "row_module_id.mdl_name":"Demo",
    "tsl_tooltip":""
  }]
}