{
  "name":"ConstraintGroup",
  "action":"upsert",
  "data":[{
    "csg_const_id.cst_name":"DemoOrder-C2",
    "csg_group_id.grp_name":"DEMO_ADMIN",
    "csg_activ":"1",
    "row_module_id.mdl_name":"Demo"
  }]
}