{
  "name":"BPMStateTransition",
  "action":"upsert",
  "data":[{
    "stm_name":"DEMO_ORD_STATUS-P-C",
    "stm_from_id.sta_state_id.lov_list_id.lov_name":"DEMO_ORD_STATUS",
    "stm_from_id.sta_state_id.lov_code":"P",
    "stm_to_id.sta_state_id.lov_list_id.lov_name":"DEMO_ORD_STATUS",
    "stm_to_id.sta_state_id.lov_code":"C",
    "stm_callbackscript":"",
    "stm_callback":"",
    "stm_condition":"",
    "stm_activ":"1",
    "stm_notif_id.alt_name":"DemoOrderCancellation",
    "stm_action_id.act_name":"DEMO_ORD_STATUS-P-C",
    "row_module_id.mdl_name":"Demo"
  }]
}