{
  "name":"Theme",
  "action":"upsert",
  "data":[{
    "thm_name":"demo",
    "thm_logo_id":"",
    "thm_logo_invert":"1",
    "thm_logo2_id":"files/Theme/demo/logo2.png",
    "thm_favicon_id":"files/Theme/demo/favicon.png",
    "thm_color1":"#F7F7F7",
    "thm_color2":"#418CF0",
    "thm_text2":"#FFFFFF",
    "thm_color3":"#418CF0",
    "thm_text3":"#FFFFFF",
    "thm_base":"light",
    "thm_css_doc":"files/Theme/demo/demo_gen.css",
    "thm_addon":"files/Theme/demo/addon.less",
    "thm_searchbox":"",
    "thm_active":"",
    "thm_font":"",
    "thm_iconset":"",
    "thm_menu_dom_c":"#F7F7F7",
    "thm_menu_dom_t":"#202020",
    "thm_menu_dact_c":"#E7E7E7",
    "thm_menu_dact_t":"#202020",
    "thm_menu_sub_c":"#F7F7F7",
    "thm_menu_sub_t":"#202020",
    "thm_menu_sact_c":"#E7E7E7",
    "thm_menu_sact_t":"#202020",
    "thm_menu_sta_c":"#F7F7F7",
    "thm_menu_sta_t":"#202020",
    "thm_compact":"0",
    "row_module_id.mdl_name":"Demo"
  }]
}