{
  "name":"TranslateDocIndex",
  "action":"upsert",
  "data":[{
    "tsl_typeDocIndex":"B",
    "tsl_id.din_name":"B-demoCtcFile",
    "tsl_lang":"FRA",
    "tsl_value":"B-demoCtcFile",
    "row_module_id.mdl_name":"Demo"
  }]
}