{
  "name":"ShortCut",
  "action":"upsert",
  "data":[{
    "shc_name":"DemoProductNew",
    "shc_url":"[EXPR:HTMLTool.getFormURL(\"DemoProduct\", null, ObjectField.DEFAULT_ROW_ID, null)]",
    "shc_target":"frame_work",
    "shc_order":"100",
    "shc_visible":"1",
    "shc_icon":"img/color/box",
    "shc_keys":"",
    "row_module_id.mdl_name":"Demo"
  }]
}