{
  "name":"Script",
  "action":"upsert",
  "data":[{
    "scr_code":"DemoTests",
    "scr_file":"test/src/com/simplicite/tests/Demo/DemoTests.java",
    "scr_type":"TST",
    "row_module_id.mdl_name":"Demo"
  }]
}