{
  "name":"Script",
  "action":"upsert",
  "data":[{
    "scr_code":"DemoCommon",
    "scr_file":"src/com/simplicite/commons/Demo/DemoCommon.java",
    "scr_type":"JSR",
    "row_module_id.mdl_name":"Demo"
  }]
}