{
  "name":"BPMAlertContent",
  "action":"upsert",
  "data":[{
    "atc_alert_id.alt_name":"DemoOrderDelivery",
    "atc_lang":"ENU",
    "atc_subject":"Order [VALUE:demoOrdNumber] shipped",
    "atc_message":"<p>Hello [VALUE:demoOrdCliId.demoCliFirstname] [VALUE:demoOrdCliId.demoCliLastname],<\/p>\n<p>Your order [VALUE:demoOrdNumber] dated [VALUE:demoOrdDate] has been shipped.<\/p>\n<p>You will shortly receive a calendar invitation for delivery.<\/p>",
    "row_module_id.mdl_name":"Demo"
  }]
}