{
  "name":"UserSysParam",
  "action":"upsert",
  "data":[{
    "usp_user_id.usr_login":"user_fra",
    "usp_param_id.sys_code":"FORCE_CHANGE_PASSWORD",
    "usp_value":"yes",
    "usp_param_id.sys_type":"PRV",
    "usp_param_id.sys_value":"empty",
    "usp_param_id.sys_desc":"Force password change (set at user level)",
    "row_module_id.mdl_name":"Demo"
  }]
}