{
  "name":"TranslateShortcut",
  "action":"upsert",
  "data":[{
    "tsl_typeShortcut":"S",
    "tsl_id.shc_name":"DemoProductNew",
    "tsl_lang":"FRA",
    "tsl_value":"Nouveau produit",
    "tsl_tooltip":"",
    "row_module_id.mdl_name":"Demo"
  }]
}