{
  "name":"TranslateTreeView",
  "action":"upsert",
  "data":[{
    "tsl_typeTreeview":"W",
    "tsl_id.trv_name":"DemoClientTreeview",
    "tsl_lang":"FRA",
    "tsl_value":"Vue en arbre du client",
    "tsl_help":"",
    "row_module_id.mdl_name":"Demo"
  }]
}