{
  "name":"FieldListLink",
  "action":"upsert",
  "data":[{
    "fll_objfield_id.obf_object_id.obo_name":"DemoContact",
    "fll_objfield_id.obf_field_id.fld_name":"demoCtcType",
    "fll_objfield_id.obf_order":"110",
    "fll_code_id.lov_list_id.lov_name":"DEMO_CTC_TYPE",
    "fll_code_id.lov_code":"REQ",
    "fll_code_id.lov_label":"Request",
    "fll_linked_id.obf_object_id.obo_name":"DemoContact",
    "fll_linked_id.obf_field_id.fld_name":"demoCtcSubType",
    "fll_linked_id.obf_order":"120",
    "fll_list_id.lov_name":"DEMO_CTC_SUBTYPE_REQ",
    "row_module_id.mdl_name":"Demo"
  }]
}