{
  "name":"TranslateAction",
  "action":"upsert",
  "data":[{
    "tsl_typeAction":"A",
    "tsl_id.act_name":"DEMO_ORD_STATUS-P-C",
    "tsl_lang":"ENU",
    "tsl_value":"Cancel",
    "tsl_simplehelp":"",
    "row_module_id.mdl_name":"Demo"
  }]
}