{
  "name":"TranslateAction",
  "action":"upsert",
  "data":[{
    "tsl_typeAction":"A",
    "tsl_id.act_name":"DEMO_ORD_STATUS-V-D",
    "tsl_lang":"FRA",
    "tsl_value":"Envoyer",
    "tsl_simplehelp":"",
    "row_module_id.mdl_name":"Demo"
  }]
}