{
  "name":"LinkMap",
  "action":"upsert",
  "data":[{
    "lmp_link_id.obf_ref_object_id.obo_name":"DemoOrder",
    "lmp_link_id.obf_object_id.obj_name":"DemoContact",
    "lmp_link_id.obf_field_id.fld_name":"demoCtcOrdId",
    "lmp_link_id.obf_order":"300",
    "lmp_obf_id.obf_object_id.obo_name":"DemoContact",
    "lmp_obf_id.obf_field_id.fld_name":"demoCtcCliId",
    "lmp_obf_id.obf_order":"200",
    "lmp_value":"",
    "lmp_type":"1",
    "lmp_obfmap_id.obf_object_id.obo_name":"DemoOrder",
    "lmp_obfmap_id.obf_field_id.fld_name":"demoOrdCliId",
    "lmp_obfmap_id.obf_order":"200",
    "row_module_id.mdl_name":"Demo"
  }]
}