{
  "name":"ShortCutGroup",
  "action":"upsert",
  "data":[{
    "shg_shortcut_id.shc_name":"DemoClientNew",
    "shg_group_id.grp_name":"DEMO_USER",
    "shg_activ":"1",
    "row_module_id.mdl_name":"Demo"
  }]
}