{
  "name":"ListOfValue",
  "action":"upsert",
  "data":[{
    "lov_name":"TEXT",
    "lov_code":"LESS_ROWS",
    "lov_lang":"FRA",
    "lov_value":"Menos lineas",
    "lov_order_by":"1",
    "lov_event_id.lev_code":"",
    "row_module_id.mdl_name":"Demo"
  }]
}