{
  "name":"ListOfValue",
  "action":"upsert",
  "data":[{
    "lov_name":"TEXT",
    "lov_code":"ERR_DEMO_PRD_STOCK",
    "lov_lang":"ENU",
    "lov_value":"Stock is not sufficient",
    "lov_order_by":"1",
    "lov_event_id.lev_code":"",
    "row_module_id.mdl_name":"Demo"
  }]
}