{
  "name":"ListOfValue",
  "action":"upsert",
  "data":[{
    "lov_name":"TEXT",
    "lov_code":"ERR_DEMO_PRD_LOWSTOCK",
    "lov_lang":"FRA",
    "lov_value":"Le stock est bas",
    "lov_order_by":"1",
    "lov_event_id.lev_code":"",
    "row_module_id.mdl_name":"Demo"
  }]
}