{
  "name":"ObjectCtxHelp",
  "action":"upsert",
  "data":[{
    "och_object_id.obo_name":"DemoClient",
    "och_context":"U",
    "och_lang":"FRA",
    "och_help":"Merci de vérifier l'adresse et les moyens de contact <b>et de les mettre à jour si nécessaire !<\/b>",
    "row_module_id.mdl_name":"Demo"
  }]
}