{
  "name":"Action",
  "action":"upsert",
  "data":[{
    "act_name":"DEMO_ORD_STATUS-V-C",
    "act_type":"O",
    "act_async":"0",
    "act_job_depth":"",
    "act_method":"",
    "act_script":"",
    "act_url":"",
    "act_image":"icon/color/btn_red",
    "act_confirm":"1",
    "act_confirm_expr":"",
    "act_confirm_ui":"",
    "act_plus":"0",
    "act_comment":"",
    "row_module_id.mdl_name":"Demo",
    "act_exec":"NUL",
    "act_count":"",
    "act_order":"2"
  }]
}