{
  "name":"Action",
  "action":"upsert",
  "data":[{
    "act_name":"DEMO_DECSTOCK",
    "act_type":"H",
    "act_async":"0",
    "act_job_depth":"",
    "act_method":"decreaseStock",
    "act_script":"",
    "act_url":"",
    "act_image":"fas/minus",
    "act_confirm":"0",
    "act_confirm_expr":"",
    "act_confirm_ui":"",
    "act_plus":"0",
    "act_comment":"Product stock **decrement** triggered by the order\nstate transition to _shipped_ status.",
    "row_module_id.mdl_name":"Demo",
    "act_exec":"BCK",
    "act_count":"",
    "act_order":""
  }]
}