{
  "name":"TranslateObjectField",
  "action":"upsert",
  "data":[{
    "tsl_typeObjectField":"L",
    "tsl_id.obf_object_id.obo_name":"DemoContact",
    "tsl_id.obf_field_id.fld_name":"demoCliWorkPhone",
    "tsl_id.obf_order":"260",
    "tsl_lang":"ENU",
    "tsl_value":"Work phone number",
    "tsl_simplehelp":"",
    "tsl_short_value":"",
    "tsl_listhelp":"",
    "tsl_placeholder":"",
    "row_module_id.mdl_name":"Demo"
  }]
}