{
  "name":"TranslateObjectField",
  "action":"upsert",
  "data":[{
    "tsl_typeObjectField":"L",
    "tsl_id.obf_object_id.obo_name":"DemoOrder",
    "tsl_id.obf_field_id.fld_name":"demoSupCode",
    "tsl_id.obf_order":"350",
    "tsl_lang":"ENU",
    "tsl_value":"Supplier code",
    "tsl_simplehelp":"This is the code of the supplier of the product of the order",
    "tsl_short_value":"",
    "tsl_listhelp":"",
    "tsl_placeholder":"",
    "row_module_id.mdl_name":"Demo"
  }]
}