{
  "name":"TranslateObjectField",
  "action":"upsert",
  "data":[{
    "tsl_typeObjectField":"L",
    "tsl_id.obf_object_id.obo_name":"DemoContact",
    "tsl_id.obf_field_id.fld_name":"demoOrdDate",
    "tsl_id.obf_order":"320",
    "tsl_lang":"FRA",
    "tsl_value":"Date commande",
    "tsl_simplehelp":"",
    "tsl_short_value":"",
    "tsl_listhelp":"",
    "tsl_placeholder":"",
    "row_module_id.mdl_name":"Demo"
  }]
}