{
  "name":"TreeViewObject",
  "action":"upsert",
  "data":[{
    "trv_tree_id.trv_name":"DemoClientTreeview",
    "trv_level":"3",
    "trv_object_id.obo_name":"DemoOrder",
    "trv_field_id.fld_name":"demoOrdCliId",
    "trv_action":"D;F",
    "trv_external_id.obe_name":"",
    "trv_action_id.act_name":"",
    "trv_shortcut_id.shc_name":"",
    "trv_process_id.pcs_name":"",
    "trv_subtree_id.trv_name":"",
    "trv_open":"0",
    "trv_nolist":"",
    "trv_pagine":"1",
    "trv_onclick":"",
    "trv_parent_id.trv_tree_id.trv_name":"DemoClientTreeview",
    "trv_parent_id.trv_level":"1",
    "row_module_id.mdl_name":"Demo"
  }]
}