{
  "name":"TranslateDomain",
  "action":"upsert",
  "data":[{
    "tsl_typeObject":"O",
    "tsl_id.obd_name":"DemoSubDomain",
    "tsl_lang":"ENU",
    "tsl_value":"Others",
    "tsl_help":"",
    "row_module_id.mdl_name":"Demo"
  }]
}