{
  "name":"TranslateExternal",
  "action":"upsert",
  "data":[{
    "tsl_typeObject":"O",
    "tsl_id.obe_name":"DemoOrderAgenda",
    "tsl_lang":"FRA",
    "tsl_value":"Calendrier des livraisons",
    "tsl_help":"",
    "row_module_id.mdl_name":"Demo"
  }]
}