{
  "name":"TranslateExternal",
  "action":"upsert",
  "data":[{
    "tsl_typeObject":"O",
    "tsl_id.obe_name":"DemoPlaceNewOrder",
    "tsl_lang":"ENU",
    "tsl_value":"Place a new order page",
    "tsl_help":"This page allow you to place a new order",
    "row_module_id.mdl_name":"Demo"
  }]
}