{
  "name":"FieldListValue",
  "action":"upsert",
  "data":[{
    "lov_code_id.lov_list_id.lov_name":"DEMO_CTC_TYPE",
    "lov_code_id.lov_code":"INF",
    "lov_code_id.lov_order_by":"1",
    "lov_lang":"FRA",
    "lov_value":"Information",
    "row_module_id.mdl_name":"Demo"
  }]
}