{
  "name":"FieldListValue",
  "action":"upsert",
  "data":[{
    "lov_code_id.lov_list_id.lov_name":"DEMO_CTC_SUBTYPE_INF",
    "lov_code_id.lov_code":"PRDINFO",
    "lov_code_id.lov_order_by":"2",
    "lov_lang":"ENU",
    "lov_value":"Product information",
    "row_module_id.mdl_name":"Demo"
  }]
}