{
  "name":"FieldListValue",
  "action":"upsert",
  "data":[{
    "lov_code_id.lov_list_id.lov_name":"DEMO_PRD_TYPE",
    "lov_code_id.lov_code":"LAPTOP",
    "lov_code_id.lov_order_by":"10",
    "lov_lang":"ENU",
    "lov_value":"Laptop",
    "row_module_id.mdl_name":"Demo"
  }]
}