{
  "name":"FieldListValue",
  "action":"upsert",
  "data":[{
    "lov_code_id.lov_list_id.lov_name":"DEMO_CTC_TYPE",
    "lov_code_id.lov_code":"CMP",
    "lov_code_id.lov_order_by":"3",
    "lov_lang":"ENU",
    "lov_value":"Complaint",
    "row_module_id.mdl_name":"Demo"
  }]
}