{
  "name":"FieldListValue",
  "action":"upsert",
  "data":[{
    "lov_code_id.lov_list_id.lov_name":"DEMO_PRD_TYPE",
    "lov_code_id.lov_code":"OTHER",
    "lov_code_id.lov_order_by":"50",
    "lov_lang":"FRA",
    "lov_value":"Autre",
    "row_module_id.mdl_name":"Demo"
  }]
}