{
  "name":"FieldListValue",
  "action":"upsert",
  "data":[{
    "lov_code_id.lov_list_id.lov_name":"DEMO_CTC_CANAL",
    "lov_code_id.lov_code":"WEB",
    "lov_code_id.lov_order_by":"4",
    "lov_lang":"FRA",
    "lov_value":"Site web",
    "row_module_id.mdl_name":"Demo"
  }]
}