{
  "name":"FieldListValue",
  "action":"upsert",
  "data":[{
    "lov_code_id.lov_list_id.lov_name":"DEMO_CLI_TYPE",
    "lov_code_id.lov_code":"T2",
    "lov_code_id.lov_order_by":"2",
    "lov_lang":"FRA",
    "lov_value":"Interne",
    "row_module_id.mdl_name":"Demo"
  }]
}