{
  "name":"FieldListValue",
  "action":"upsert",
  "data":[{
    "lov_code_id.lov_list_id.lov_name":"DEMO_ORD_STATUS",
    "lov_code_id.lov_code":"P",
    "lov_code_id.lov_order_by":"1",
    "lov_lang":"ENU",
    "lov_value":"Pending",
    "row_module_id.mdl_name":"Demo"
  }]
}