{
  "name":"FieldListValue",
  "action":"upsert",
  "data":[{
    "lov_code_id.lov_list_id.lov_name":"DEMO_CTC_SUBTYPE_INF",
    "lov_code_id.lov_code":"ORDSTATUS",
    "lov_code_id.lov_order_by":"1",
    "lov_lang":"FRA",
    "lov_value":"Order status",
    "row_module_id.mdl_name":"Demo"
  }]
}