{
  "name":"FieldStyle",
  "action":"upsert",
  "data":[{
    "sty_object":"*",
    "sty_field":"demoCtcPriority",
    "sty_value":"0",
    "sty_vmin":"",
    "sty_vmax":"",
    "sty_style":"",
    "sty_image":"icon/blank",
    "row_module_id.mdl_name":"Demo"
  }]
}