{
  "name":"TranslateObject",
  "action":"upsert",
  "data":[{
    "tsl_typeObject":"O",
    "tsl_id.obo_name":"DemoOrderHistoric",
    "tsl_lang":"FRA",
    "tsl_value":"Commande (hist.)",
    "tsl_help":"",
    "row_module_id.mdl_name":"Demo"
  }]
}