{
  "name":"TranslateObject",
  "action":"upsert",
  "data":[{
    "tsl_typeObject":"O",
    "tsl_id.obo_name":"DemoOrder",
    "tsl_lang":"FRA",
    "tsl_value":"Commande|Commandes",
    "tsl_help":"<p>Voici une aide d&eacute;taill&eacute;e sur comment prendre une commande:<\/p>\n<ul>\n<li>Selectionner un client<\/li>\n<li>Selectionner un produit<\/li>\n<li>Entrez une quantiti&eacute; strictement positive<\/li>\n<\/ul>",
    "row_module_id.mdl_name":"Demo"
  }]
}