{
  "name":"View",
  "action":"upsert",
  "data":[{
    "viw_name":"DemoAdminHome",
    "viw_ui":"<script type=\"text/javascript\">\ntry {\n\t$ui.view.showLoading(null);\n\t$ui.displayStatusMetrics(null, \"DemoOrder\", null, function() { $ui.view.hideLoading(null); });\n} catch (e) {\n\tconsole.error(e);\n\t$ui.view.hideLoading(null);\n}\n<\/script>",
    "viw_order":"110",
    "viw_icon":"",
    "viw_disp_id.dis_code":"",
    "viw_scope":"",
    "row_module_id.mdl_name":"Demo",
    "viw_theme_id.thm_name":"demo",
    "viw_lang":""
  }]
}