{
  "name":"BPMGrantProcess",
  "action":"upsert",
  "data":[{
    "gtp_group_id.grp_name":"DEMO_ADMIN",
    "gtp_process_id.pcs_name":"DemoOrderCreate",
    "gtp_grant":"N;R;C",
    "row_module_id.mdl_name":"Demo"
  }]
}