{
  "name":"Adapter",
  "action":"upsert",
  "data":[{
    "adp_name":"DemoAdapter",
    "adp_atomic":"1",
    "adp_type":"JAVA",
    "adp_script":"",
    "adp_class":"",
    "adp_script_id":"src/com/simplicite/adapters/Demo/DemoAdapter.java",
    "row_module_id.mdl_name":"Demo"
  }]
}