{
  "name":"ObjectInternal",
  "action":"upsert",
  "data":[{
    "obo_name":"DemoOrder",
    "obo_dbtable":"demo_order",
    "obo_class":"",
    "obo_script_id":"src/com/simplicite/objects/Demo/DemoOrder.java",
    "obo_usets":"1",
    "obo_nosearch":"1",
    "obo_comment":"The **order** business object corresponds to the\nproduct orders placed by clients.\n\nAn order is for one single product.",
    "obo_type":"O",
    "obo_searchspec":"",
    "obo_delspec":"",
    "obo_exportorder":"",
    "obo_distinct":"0",
    "obo_indexable":"1",
    "obo_groupby":"0",
    "obo_dfltref":"DemoOrderHistoric;row_ref_id",
    "obo_template_id.tpl_name":"DemoOrder",
    "obo_cache":"S",
    "obo_copy":"1",
    "obo_export":"1",
    "obo_pagine":"1",
    "obo_srh_predef":"1",
    "obo_selrow":"1",
    "obo_updall":"1",
    "obo_delall":"1",
    "obo_listsearch":"1",
    "obo_list_edit":"N;I;E",
    "obo_useform":"1",
    "obo_title":"",
    "obo_icon":"img/color/documents_folder",
    "obo_refcount":"0",
    "obo_tree":"0",
    "obo_viewmode":"T",
    "obo_historic":"1;2;3",
    "obo_printable":"1",
    "obo_followlink":"1",
    "obo_mergeable":"0",
    "obo_social":"1",
    "obo_rowid_id.fld_name":"",
    "obo_extend_id.obj_name":"",
    "row_module_id.mdl_name":"Demo",
    "obo_btn_reload":"P",
    "obo_btn_prefs":"P",
    "obo_btn_del":"P",
    "obo_btn_copy":"P",
    "obo_btn_export":"P",
    "obo_btn_listadd":"1",
    "obo_btn_listedit":"1",
    "obo_btn_listupsert":"1",
    "obo_btn_updall":"P",
    "obo_btn_delall":"P",
    "obo_btn_merge":"P",
    "obo_btn_save":"1",
    "obo_btn_saveclose":"1",
    "obo_btn_savenew":"1",
    "obo_btn_savecopy":"1",
    "obo_btn_close":"1",
    "obo_tray":"1",
    "obo_dashboard":"1",
    "obo_prefix":"ord",
    "obo_search_ts":"",
    "obo_minrows":"",
    "obo_maxrows":"",
    "obo_sortable":"1",
    "obo_list_areas":"1"
  }]
}