{
  "name":"TranslateCrosstab",
  "action":"upsert",
  "data":[{
    "tsl_typeCrosstab":"C",
    "tsl_id.ctb_name":"DemoOrder-TC3",
    "tsl_lang":"FRA",
    "tsl_value":"Quantités",
    "row_module_id.mdl_name":"Demo"
  }]
}