{
  "name":"BPMData",
  "action":"upsert",
  "data":[{
    "dta_activity_id.acy_process_id.pcs_name":"DemoOrderCreate",
    "dta_activity_id.acy_step":"ORDC-200",
    "dta_activity_id.acy_name":"SupplierSelect",
    "dta_group":"Object",
    "dta_name":"Name",
    "dta_order":"1",
    "dta_value":"DemoSupplier",
    "dta_field_id.fld_name":"",
    "row_module_id.mdl_name":"Demo"
  }]
}