{
  "name":"FieldListCode",
  "action":"upsert",
  "data":[{
    "lov_list_id.lov_name":"DEMO_CTC_CANAL",
    "lov_code":"WEB",
    "lov_order_by":"4",
    "lov_label":"Code WEB",
    "row_module_id.mdl_name":"Demo",
    "lov_color":"",
    "lov_color_bg":"",
    "lov_icon":"icon/url",
    "lov_display":"I"
  }]
}