{
  "name":"FieldListCode",
  "action":"upsert",
  "data":[{
    "lov_list_id.lov_name":"DEMO_CTC_TYPE",
    "lov_code":"INF",
    "lov_order_by":"1",
    "lov_label":"Information",
    "row_module_id.mdl_name":"Demo",
    "lov_color":"",
    "lov_color_bg":"",
    "lov_icon":"",
    "lov_display":"L;T"
  }]
}