{
  "name":"FieldListCode",
  "action":"upsert",
  "data":[{
    "lov_list_id.lov_name":"DEMO_PRD_TYPE",
    "lov_code":"DESKTOP",
    "lov_order_by":"20",
    "lov_label":"Desktop",
    "row_module_id.mdl_name":"Demo",
    "lov_color":"",
    "lov_color_bg":"",
    "lov_icon":"fas/desktop",
    "lov_display":"I;L;T"
  }]
}