{
  "name":"FieldListCode",
  "action":"upsert",
  "data":[{
    "lov_list_id.lov_name":"DEMO_PRD_TYPE",
    "lov_code":"TABLET",
    "lov_order_by":"30",
    "lov_label":"Tablet",
    "row_module_id.mdl_name":"Demo",
    "lov_color":"",
    "lov_color_bg":"",
    "lov_icon":"fas/tablet-alt",
    "lov_display":"I;L;T"
  }]
}