{
  "name":"ConstraintObject",
  "action":"upsert",
  "data":[{
    "cst_name":"DemoOrder-C3",
    "cst_object_id.obo_name":"DemoOrder",
    "cst_order":"30",
    "cst_desc":"",
    "cst_type":"E",
    "cst_effects":"B",
    "cst_field_id.fld_name":"",
    "cst_expr":"[ISNEW] || [STATUS] == \"P\"",
    "cst_method":"",
    "row_module_id.mdl_name":"Demo"
  }]
}