{
  "name":"ConstraintObject",
  "action":"upsert",
  "data":[{
    "cst_name":"DemoOrder-C5",
    "cst_object_id.obo_name":"DemoOrder",
    "cst_order":"50",
    "cst_desc":"",
    "cst_type":"E",
    "cst_effects":"B",
    "cst_field_id.fld_name":"",
    "cst_expr":"[STATUS] == \"V\"",
    "cst_method":"",
    "row_module_id.mdl_name":"Demo"
  }]
}