{
  "name":"Function",
  "action":"upsert",
  "data":[{
    "fct_name":"DEMO-CTC-CU",
    "fct_object_id.obj_type":"O",
    "fct_object_id.obj_name":"DemoContact",
    "fct_function":"CM",
    "fct_action_id.act_name":"",
    "fct_view_id.viw_name":"",
    "row_module_id.mdl_name":"Demo"
  }]
}