{
  "name":"Function",
  "action":"upsert",
  "data":[{
    "fct_name":"DEMO-CLI-R",
    "fct_object_id.obj_type":"O",
    "fct_object_id.obj_name":"DemoClient",
    "fct_function":"L",
    "fct_action_id.act_name":"",
    "fct_view_id.viw_name":"",
    "row_module_id.mdl_name":"Demo"
  }]
}