{
  "name":"BPMStateTranGroup",
  "action":"upsert",
  "data":[{
    "stg_transition_id.stm_name":"DEMO_CTC_STATUS-O-C",
    "stg_group_id.grp_name":"DEMO_USER",
    "stg_activ":"1",
    "stg_object_id.obo_name":"DemoContact",
    "row_module_id.mdl_name":"Demo"
  }]
}