{
  "name":"BPMStateTranGroup",
  "action":"upsert",
  "data":[{
    "stg_transition_id.stm_name":"DEMO_ORD_STATUS-P-V",
    "stg_group_id.grp_name":"DEMO_ADMIN",
    "stg_activ":"1",
    "stg_object_id.obo_name":"DemoOrder",
    "row_module_id.mdl_name":"Demo"
  }]
}