{
  "name":"FieldList",
  "action":"upsert",
  "data":[{
    "lov_name":"DEMO_CTC_SUBTYPE_REQ",
    "row_module_id.mdl_name":"Demo",
    "lov_model_id.mod_name":"",
    "lov_model_id.mod_image":""
  }]
}