{
  "name":"CrosstabGroup",
  "action":"upsert",
  "data":[{
    "ctg_crosstab_id.ctb_name":"DemoOrder-TC4",
    "ctg_group_id.grp_name":"DEMO_ADMIN",
    "ctg_edit":"0",
    "row_module_id.mdl_name":"Demo"
  }]
}