{
  "name":"BPMActivity",
  "action":"upsert",
  "data":[{
    "acy_process_id.pcs_name":"DemoOrderCreate",
    "acy_step":"ORDC-200",
    "acy_name":"SupplierSelect",
    "acy_comment":"Supplier selection activity",
    "acy_type":"C",
    "acy_posx":"",
    "acy_posy":"",
    "acy_reversible":"E",
    "acy_max_duration":"",
    "acy_duration_unit":"",
    "acy_alert_id.alt_name":"",
    "acy_user_dlg":"1",
    "row_module_id.mdl_name":"Demo"
  }]
}