{
  "name":"TranslateResearch",
  "action":"upsert",
  "data":[{
    "tsl_typeResearch":"Q",
    "tsl_id.rch_name":"DemoOrder-S1",
    "tsl_id.rch_user_id.usr_login":"designer",
    "tsl_id.rch_object_id.obo_name":"DemoOrder",
    "tsl_value":"Pending orders",
    "tsl_lang":"ENU",
    "row_module_id.mdl_name":"Demo"
  }]
}