{
  "name":"Template",
  "action":"upsert",
  "data":[{
    "tpl_name":"DemoOrder",
    "tpl_ui":"<div>\n  <div class=\"row\">\n    <div class=\"col-sm-5\">\n      <div class=\"area\" data-area=\"1:=\"><\/div>\n      <div class=\"area\" data-area=\"4:=\"><\/div>\n    <\/div>\n    <div class=\"col-sm-7\">\n      <div class=\"area\" data-area=\"2:=\"><\/div>\n      <div class=\"area\" data-area=\"3:=\"><\/div>\n    <\/div>\n  <\/div>\n  <div class=\"row\">\n    <div class=\"area col-sm-12\" data-area=\"5:-\"><\/div>\n  <\/div>\n<\/div>",
    "tpl_min":"",
    "tpl_image":"",
    "row_module_id.mdl_name":"Demo"
  }]
}