{
  "name":"Template",
  "action":"upsert",
  "data":[{
    "tpl_name":"DemoClient",
    "tpl_ui":"<div>\n  <div class=\"row\">\n    <div class=\"area col-sm-12\" data-area=\"1\"><\/div>\n  <\/div>\n  <div class=\"row\">\n    <div class=\"area col-sm-12\" data-area=\"2,3,4\"><\/div>\n  <\/div>\n<\/div>",
    "tpl_min":"",
    "tpl_image":"",
    "row_module_id.mdl_name":"Demo"
  }]
}