{
  "name":"Map",
  "action":"upsert",
  "data":[{
    "map_domain_id.obd_name":"DemoDomain",
    "map_object_id.obj_name":"DemoClient",
    "map_process_id.pcs_name":"",
    "map_order":"70020",
    "map_ext":"0",
    "row_module_id.mdl_name":"Demo"
  }]
}