{
  "name":"BPMGrantActivity",
  "action":"upsert",
  "data":[{
    "gta_group_id.grp_name":"DEMO_USER",
    "gta_activity_id.acy_process_id.pcs_name":"DemoOrderCreate",
    "gta_activity_id.acy_step":"ORDC-100",
    "gta_activity_id.acy_name":"ClientSelect",
    "gta_grant":"R;W",
    "row_module_id.mdl_name":"Demo"
  }]
}