{
  "name":"TranslateFieldArea",
  "action":"upsert",
  "data":[{
    "tsl_typeFieldArea":"Z",
    "tsl_id.ofa_name":"DemoContact-1",
    "tsl_lang":"FRA",
    "tsl_value":"Identification",
    "row_module_id.mdl_name":"Demo"
  }]
}