{
  "name":"TranslateFieldArea",
  "action":"upsert",
  "data":[{
    "tsl_typeFieldArea":"Z",
    "tsl_id.ofa_name":"DemoOrder-4",
    "tsl_lang":"ENU",
    "tsl_value":"Order",
    "row_module_id.mdl_name":"Demo"
  }]
}