{
  "name":"BPMState",
  "action":"upsert",
  "data":[{
    "sta_lovname":"DEMO_ORD_STATUS",
    "sta_state_id.lov_list_id.lov_name":"DEMO_ORD_STATUS",
    "sta_state_id.lov_code":"D",
    "sta_state":"D",
    "sta_label":"Shipped state",
    "sta_activ":"1",
    "sta_terminal":"1",
    "sta_read":"1",
    "sta_access":"1",
    "sta_timeout":"",
    "sta_alert_id.alt_name":"",
    "row_module_id.mdl_name":"Demo"
  }]
}