{
  "name":"BPMState",
  "action":"upsert",
  "data":[{
    "sta_lovname":"DEMO_CTC_STATUS",
    "sta_state_id.lov_list_id.lov_name":"DEMO_CTC_STATUS",
    "sta_state_id.lov_code":"P",
    "sta_state":"P",
    "sta_label":"Processing",
    "sta_activ":"1",
    "sta_terminal":"0",
    "sta_read":"0",
    "sta_access":"1",
    "sta_timeout":"",
    "sta_alert_id.alt_name":"",
    "row_module_id.mdl_name":"Demo"
  }]
}