{
  "name":"TranslateLink",
  "action":"upsert",
  "data":[{
    "tsl_typeLink":"K",
    "tsl_id.obf_object_id.obj_name":"DemoProduct",
    "tsl_id.obf_field_id.fld_name":"demoPrdSupId",
    "tsl_id.obf_order":"100",
    "tsl_lang":"ENU",
    "tsl_value":"Supplier's products",
    "tsl_simplehelp":"",
    "row_module_id.mdl_name":"Demo"
  }]
}