{
  "name":"TranslateLink",
  "action":"upsert",
  "data":[{
    "tsl_typeLink":"K",
    "tsl_id.obf_object_id.obj_name":"DemoContact",
    "tsl_id.obf_field_id.fld_name":"demoCtcCliId",
    "tsl_id.obf_order":"200",
    "tsl_lang":"ENU",
    "tsl_value":"Customer's contacts",
    "tsl_simplehelp":"",
    "row_module_id.mdl_name":"Demo"
  }]
}