{
  "name":"ConstraintImpact",
  "action":"upsert",
  "data":[{
    "csi_const_id.cst_name":"DemoOrder-C1",
    "csi_const_id.cst_object_id.obo_name":"DemoOrder",
    "csi_const_id.cst_order":"10",
    "csi_order":"20",
    "csi_object_prop":"",
    "csi_field_prop":"U",
    "csi_apply":"F",
    "csi_expr":"false",
    "csi_target":null,
    "csi_objfield_id.obf_object_id.obo_name":"DemoOrder",
    "csi_objfield_id.obf_field_id.fld_name":"demoOrdQuantity",
    "csi_objfield_id.obf_order":"410",
    "row_module_id.mdl_name":"Demo"
  }]
}