{
  "name":"ViewItem",
  "action":"upsert",
  "data":[{
    "vwi_view_id.viw_name":"DemoHome",
    "vwi_position":"4",
    "vwi_type":"E",
    "vwi_title":"0",
    "vwi_research_id.rch_name":"",
    "vwi_research_id.rch_object_id.obo_name":"",
    "vwi_research_id.rch_user_id.usr_login":"",
    "vwi_search_spec":"",
    "vwi_lov_code":"",
    "vwi_show":"",
    "vwi_url":"[EXPR:HTMLTool.getExternalObjectURL(\"DemoOrderAgenda\")]",
    "vwi_image":"",
    "vwi_crosstab_id.ctb_name":"",
    "vwi_printtmpl_id.prt_name":"",
    "vwi_printtmpl_id.prt_lang":"",
    "row_module_id.mdl_name":"Demo"
  }]
}