{
  "name":"ViewItem",
  "action":"upsert",
  "data":[{
    "vwi_view_id.viw_name":"DemoHome",
    "vwi_position":"3",
    "vwi_type":"S",
    "vwi_title":"1",
    "vwi_research_id.rch_name":"DemoContact-S1",
    "vwi_research_id.rch_object_id.obo_name":"DemoContact",
    "vwi_research_id.rch_user_id.usr_login":"designer",
    "vwi_search_spec":"",
    "vwi_lov_code":"",
    "vwi_show":"DemoContact",
    "vwi_url":"",
    "vwi_image":"",
    "vwi_crosstab_id.ctb_name":"",
    "vwi_printtmpl_id.prt_name":"",
    "vwi_printtmpl_id.prt_lang":"",
    "row_module_id.mdl_name":"Demo"
  }]
}