{
  "name":"Crosstab",
  "action":"upsert",
  "data":[{
    "ctb_name":"DemoOrder-TC2",
    "ctb_object_id.obo_name":"DemoOrder",
    "ctb_function":"S",
    "ctb_grantable":"1",
    "ctb_visible":"1",
    "ctb_fixedcolors":"1",
    "ctb_precision":"2",
    "ctb_subtotal":"1",
    "ctb_totalcolor":"#E4E4E4",
    "ctb_caption":"B",
    "row_module_id.mdl_name":"Demo"
  }]
}