{
  "name":"Field",
  "action":"upsert",
  "data":[{
    "fld_name":"demoCliCountry",
    "fld_dbname":"cli_country",
    "fld_visible":"3",
    "fld_updatable":"1",
    "fld_required":"1",
    "fld_fonctid":"0",
    "fld_research":"1",
    "fld_researchreq":"0",
    "fld_sort":"0",
    "fld_more":"0",
    "fld_listmore":"0",
    "fld_listsum":"0",
    "fld_tray":"",
    "fld_type":"7",
    "fld_type_id.flt_code":"",
    "fld_list_id.lov_name":"DEMO_COUNTRY",
    "fld_copy":"1",
    "fld_size":"30",
    "fld_minsize":"",
    "fld_precision":"",
    "fld_fromdate_id.fld_name":"",
    "fld_dfault":"",
    "fld_indexable":"0",
    "fld_autocomp":"0",
    "fld_groupby":"0",
    "fld_updall":"1",
    "fld_case":"",
    "fld_righttoleft":"0",
    "fld_rendering":"",
    "fld_speech":"",
    "fld_calc":"",
    "fld_objlist":"",
    "fld_comment":"Customer country",
    "fld_classification":"PERSONAL",
    "row_module_id.mdl_name":"Demo"
  }]
}