{
  "name":"Field",
  "action":"upsert",
  "data":[{
    "fld_name":"demoOrdTotal",
    "fld_dbname":"ord_total",
    "fld_visible":"3",
    "fld_updatable":"0",
    "fld_required":"0",
    "fld_fonctid":"0",
    "fld_research":"1",
    "fld_researchreq":"0",
    "fld_sort":"C",
    "fld_more":"0",
    "fld_listmore":"0",
    "fld_listsum":"1",
    "fld_tray":"",
    "fld_type":"2",
    "fld_type_id.flt_code":"",
    "fld_list_id.lov_name":"",
    "fld_copy":"1",
    "fld_size":"11",
    "fld_minsize":"",
    "fld_precision":"2",
    "fld_fromdate_id.fld_name":"",
    "fld_dfault":"0",
    "fld_indexable":"0",
    "fld_autocomp":"0",
    "fld_groupby":"0",
    "fld_updall":"1",
    "fld_case":"",
    "fld_righttoleft":"0",
    "fld_rendering":"EURO",
    "fld_speech":"",
    "fld_calc":"[VALUE:demoOrdQuantity] * [VALUE:demoOrdUnitPrice]",
    "fld_objlist":"",
    "fld_comment":"Total order amount",
    "fld_classification":"",
    "row_module_id.mdl_name":"Demo"
  }]
}