{
  "name":"Field",
  "action":"upsert",
  "data":[{
    "fld_name":"demoCliAddress1",
    "fld_dbname":"cli_address1",
    "fld_visible":"2",
    "fld_updatable":"2",
    "fld_required":"1",
    "fld_fonctid":"0",
    "fld_research":"0",
    "fld_researchreq":"0",
    "fld_sort":"C",
    "fld_more":"0",
    "fld_listmore":"0",
    "fld_listsum":"0",
    "fld_tray":"",
    "fld_type":"3",
    "fld_type_id.flt_code":"",
    "fld_list_id.lov_name":"",
    "fld_copy":"1",
    "fld_size":"100",
    "fld_minsize":"",
    "fld_precision":"",
    "fld_fromdate_id.fld_name":"",
    "fld_dfault":"",
    "fld_indexable":"0",
    "fld_autocomp":"0",
    "fld_groupby":"0",
    "fld_updall":"1",
    "fld_case":"",
    "fld_righttoleft":"0",
    "fld_rendering":"",
    "fld_speech":"",
    "fld_calc":"",
    "fld_objlist":"",
    "fld_comment":"Customer address (line 1)",
    "fld_classification":"PERSONAL",
    "row_module_id.mdl_name":"Demo"
  }]
}