{
  "name":"Field",
  "action":"upsert",
  "data":[{
    "fld_name":"demoPrdDescription",
    "fld_dbname":"prd_description",
    "fld_visible":"2",
    "fld_updatable":"2",
    "fld_required":"0",
    "fld_fonctid":"0",
    "fld_research":"0",
    "fld_researchreq":"0",
    "fld_sort":"C",
    "fld_more":"1",
    "fld_listmore":"1",
    "fld_listsum":"0",
    "fld_tray":"",
    "fld_type":"13",
    "fld_type_id.flt_code":"",
    "fld_list_id.lov_name":"",
    "fld_copy":"1",
    "fld_size":"1000000",
    "fld_minsize":"",
    "fld_precision":"50",
    "fld_fromdate_id.fld_name":"",
    "fld_dfault":"",
    "fld_indexable":"0",
    "fld_autocomp":"0",
    "fld_groupby":"0",
    "fld_updall":"1",
    "fld_case":"",
    "fld_righttoleft":"0",
    "fld_rendering":"",
    "fld_speech":"R",
    "fld_calc":"",
    "fld_objlist":"",
    "fld_comment":"Product description",
    "fld_classification":"",
    "row_module_id.mdl_name":"Demo"
  }]
}