{
  "name":"TranslateView",
  "action":"upsert",
  "data":[{
    "tsl_typeView":"V",
    "tsl_id.viw_name":"DemoAdminHome",
    "tsl_lang":"ENU",
    "tsl_value":"Demo",
    "tsl_help":"",
    "row_module_id.mdl_name":"Demo"
  }]
}