{
  "name":"TranslateView",
  "action":"upsert",
  "data":[{
    "tsl_typeView":"V",
    "tsl_id.viw_name":"DemoHome",
    "tsl_lang":"FRA",
    "tsl_value":"Démo",
    "tsl_help":"",
    "row_module_id.mdl_name":"Demo"
  }]
}