{
  "name":"Resource",
  "action":"upsert",
  "data":[{
    "res_object":{
  "name":"ObjectExternal",
  "data":[{
    "obe_name":"DemoOrderAgenda"
  }]
},
    "res_type":"HTML",
    "res_lang":"ANY",
    "res_code":"HTML",
    "res_cached":"0",
    "res_file":"resources/ObjectExternal/DemoOrderAgenda/HTML.html",
    "res_file_compiled":"",
    "res_image":"",
    "row_module_id.mdl_name":"Demo"
  }]
}