{
  "name":"Resource",
  "action":"upsert",
  "data":[{
    "res_object":{
  "name":"ObjectInternal",
  "data":[{
    "obo_name":"DemoClient"
  }]
},
    "res_type":"JS",
    "res_lang":"ANY",
    "res_code":"SCRIPT",
    "res_cached":"0",
    "res_file":"resources/ObjectInternal/DemoClient/SCRIPT.js",
    "res_file_compiled":"resources/ObjectInternal/DemoClient/SCRIPT.min.js",
    "res_image":"",
    "row_module_id.mdl_name":"Demo"
  }]
}