{
  "name":"ObjectFieldSystem",
  "action":"upsert",
  "data":[{
    "obf_object_id.obo_name":"DemoOrder",
    "obf_field_id.fld_name":"demoOrdVAT",
    "obf_field_id.fld_type":"2",
    "obf_order":"430",
    "obf_group_by":"",
    "obf_dfault_order":"",
    "obf_input":"",
    "obf_ref_field_id.fld_name":"",
    "obf_ref_object_id.obo_name":"",
    "obf_cascad":"",
    "obf_card":"",
    "obf_visible":"",
    "obf_ref_export":"1",
    "obf_copy":"",
    "obf_ref_order":"",
    "obf_fld_visible":"",
    "obf_fld_required":"",
    "obf_fld_updatable":"",
    "obf_fld_research":"",
    "obf_fld_more":"",
    "obf_fld_listmore":"",
    "obf_fld_researchreq":"",
    "obf_fld_dfault":"",
    "obf_field_id.fld_dfault":"0",
    "obf_area_id.ofa_name":"DemoOrder-4",
    "obf_area_id.ofa_position":"4",
    "row_module_id.mdl_name":"Demo"
  }]
}