{
  "name":"ObjectFieldSystem",
  "action":"upsert",
  "data":[{
    "obf_object_id.obo_name":"DemoProduct",
    "obf_field_id.fld_name":"demoSupUsrId",
    "obf_field_id.fld_type":"0",
    "obf_order":"140",
    "obf_group_by":"",
    "obf_dfault_order":"",
    "obf_input":"",
    "obf_ref_field_id.fld_name":"demoPrdSupId",
    "obf_ref_object_id.obo_name":"DemoSupplier",
    "obf_cascad":"",
    "obf_card":"",
    "obf_visible":"",
    "obf_ref_export":"1",
    "obf_copy":"",
    "obf_ref_order":"",
    "obf_fld_visible":"0",
    "obf_fld_required":"",
    "obf_fld_updatable":"",
    "obf_fld_research":"0",
    "obf_fld_more":"",
    "obf_fld_listmore":"",
    "obf_fld_researchreq":"",
    "obf_fld_dfault":"",
    "obf_field_id.fld_dfault":"[USERID]",
    "obf_area_id.ofa_name":"DemoProduct-1",
    "obf_area_id.ofa_position":"1",
    "row_module_id.mdl_name":"Demo"
  }]
}