{
  "name":"ObjectFieldSystem",
  "action":"upsert",
  "data":[{
    "obf_object_id.obo_name":"DemoContact",
    "obf_field_id.fld_name":"demoCtcStatus",
    "obf_field_id.fld_type":"7",
    "obf_order":"190",
    "obf_group_by":"",
    "obf_dfault_order":"",
    "obf_input":"",
    "obf_ref_field_id.fld_name":"",
    "obf_ref_object_id.obo_name":"",
    "obf_cascad":"",
    "obf_card":"",
    "obf_visible":"",
    "obf_ref_export":"1",
    "obf_copy":"",
    "obf_ref_order":"",
    "obf_fld_visible":"3",
    "obf_fld_required":"1",
    "obf_fld_updatable":"2",
    "obf_fld_research":"2",
    "obf_fld_more":"0",
    "obf_fld_listmore":"0",
    "obf_fld_researchreq":"0",
    "obf_fld_dfault":"",
    "obf_field_id.fld_dfault":"O",
    "obf_area_id.ofa_name":"DemoContact-1",
    "obf_area_id.ofa_position":"1",
    "row_module_id.mdl_name":"Demo"
  }]
}