{
  "name":"ObjectFieldSystem",
  "action":"upsert",
  "data":[{
    "obf_object_id.obo_name":"DemoContact",
    "obf_field_id.fld_name":"demoPrdName",
    "obf_field_id.fld_type":"3",
    "obf_order":"380",
    "obf_group_by":"",
    "obf_dfault_order":"",
    "obf_input":"",
    "obf_ref_field_id.fld_name":"demoOrdPrdId",
    "obf_ref_object_id.obo_name":"DemoProduct",
    "obf_cascad":"",
    "obf_card":"",
    "obf_visible":"",
    "obf_ref_export":"1",
    "obf_copy":"",
    "obf_ref_order":"",
    "obf_fld_visible":"2",
    "obf_fld_required":"",
    "obf_fld_updatable":"",
    "obf_fld_research":"0",
    "obf_fld_more":"0",
    "obf_fld_listmore":"0",
    "obf_fld_researchreq":"0",
    "obf_fld_dfault":"",
    "obf_field_id.fld_dfault":"",
    "obf_area_id.ofa_name":"DemoContact-3",
    "obf_area_id.ofa_position":"3",
    "row_module_id.mdl_name":"Demo"
  }]
}