{
  "name":"ObjectFieldSystem",
  "action":"upsert",
  "data":[{
    "obf_object_id.obo_name":"DemoContact",
    "obf_field_id.fld_name":"demoCtcOrdId",
    "obf_field_id.fld_type":"0",
    "obf_order":"300",
    "obf_group_by":"",
    "obf_dfault_order":"",
    "obf_input":"",
    "obf_ref_field_id.fld_name":"",
    "obf_ref_object_id.obo_name":"DemoOrder",
    "obf_cascad":"C",
    "obf_card":"0,n",
    "obf_visible":"1",
    "obf_ref_export":"1",
    "obf_copy":"0",
    "obf_ref_order":"10",
    "obf_fld_visible":"3",
    "obf_fld_required":"0",
    "obf_fld_updatable":"1",
    "obf_fld_research":"1",
    "obf_fld_more":"0",
    "obf_fld_listmore":"0",
    "obf_fld_researchreq":"0",
    "obf_fld_dfault":"",
    "obf_field_id.fld_dfault":"",
    "obf_area_id.ofa_name":"DemoContact-3",
    "obf_area_id.ofa_position":"3",
    "row_module_id.mdl_name":"Demo"
  }]
}