{
  "name":"Grant",
  "action":"upsert",
  "data":[{
    "grt_group_id.grp_name":"DEMO_USER",
    "grt_function_id.fct_name":"DemoDomain-D",
    "grt_function_id.fct_object_id.obj_type":"D",
    "grt_function_id.fct_object_id.obj_name":"DemoDomain",
    "grt_function_id.fct_action_id.act_name":"",
    "grt_function_id.fct_function":"L",
    "grt_activ":"1",
    "row_module_id.mdl_name":"Demo"
  }]
}