{
  "name":"Grant",
  "action":"upsert",
  "data":[{
    "grt_group_id.grp_name":"DEMO_ADMIN",
    "grt_function_id.fct_name":"DEMO-PRD-CUD",
    "grt_function_id.fct_object_id.obj_type":"O",
    "grt_function_id.fct_object_id.obj_name":"DemoProduct",
    "grt_function_id.fct_action_id.act_name":"",
    "grt_function_id.fct_function":"CMS",
    "grt_activ":"1",
    "row_module_id.mdl_name":"Demo"
  }]
}