{
  "name":"ActionField",
  "action":"upsert",
  "data":[{
    "afd_action_id.act_name":"DEMO_INCSTOCK",
    "afd_field_id.fld_name":"demoPrdStock",
    "afd_order":"1",
    "afd_ref_field_id.fld_name":"",
    "afd_ref_object_id.obo_name":"",
    "row_module_id.mdl_name":"Demo"
  }]
}