{
  "name":"ModelTemplateLink",
  "action":"upsert",
  "data":[{
    "mtl_template_id.mtp_name":"DemoModel",
    "mtl_name":"DemoModel_SupplierProduct",
    "mtl_type":"0",
    "mtl_cc_type":"1",
    "mtl_fromobj_id.obo_name":"DemoProduct",
    "mtl_fromfield_id.fld_name":"demoPrdSupId",
    "mtl_toobj_id.obo_name":"DemoSupplier",
    "mtl_tofield_id.fld_name":"row_id",
    "mtl_link_id.obo_name":"",
    "mtl_linkfrom_id.fld_name":"",
    "mtl_linkto_id.fld_name":"",
    "mtl_showlabel":"0",
    "mtl_cc_label":"0",
    "mtl_curved":"1",
    "mtl_cc_curved":"1",
    "mtl_bridge":"1",
    "mtl_cc_bridge":"1",
    "mtl_render":"0",
    "mtl_cc_render":"1",
    "mtl_thickness":"1.2",
    "mtl_cc_thick":"1",
    "mtl_color":"",
    "mtl_cc_color":"1",
    "row_module_id.mdl_name":"Demo"
  }]
}