{
  "name":"ObjectFieldArea",
  "action":"upsert",
  "data":[{
    "ofa_name":"DemoClient-4",
    "ofa_position":"4",
    "ofa_title":"1",
    "ofa_ui":"<div>\n  <div class=\"field\" data-field=\"demoCliType\"><\/div>\n  <div class=\"field\" data-field=\"demoCliComments\"><\/div>\n<\/div>",
    "ofa_icon":"",
    "row_module_id.mdl_name":"Demo"
  }]
}