{
  "name":"ObjectFieldArea",
  "action":"upsert",
  "data":[{
    "ofa_name":"DemoProduct-3",
    "ofa_position":"3",
    "ofa_title":"1",
    "ofa_ui":"<div class=\"row\">\n  <div class=\"col-sm-6\">\n    <div class=\"field\" data-field=\"demoPrdStock\"><\/div>\n    <div class=\"field\" data-field=\"demoPrdUnitPrice\"><\/div>\n  <\/div>\n  <div class=\"col-sm-6\">\n    <div class=\"action\" data-action=\"DEMO_INCSTOCK\"><\/div>\n    <div class=\"field\" data-field=\"demoPrdAvailable\"><\/div>\n  <\/div>\n<\/div>",
    "ofa_icon":"",
    "row_module_id.mdl_name":"Demo"
  }]
}