{
  "name":"ObjectFieldArea",
  "action":"upsert",
  "data":[{
    "ofa_name":"DemoClient-3",
    "ofa_position":"3",
    "ofa_title":"1",
    "ofa_ui":"<div>\n  <div class=\"row\">\n    <div class=\"col-sm-8\">\n      <div class=\"field\" data-field=\"demoCliEmail\"><\/div>\n    <\/div>\n    <div class=\"col-sm-4\">\n      <div id=\"hangout-button\"><\/div>\n    <\/div>\n  <\/div>\n  <div class=\"row\">\n    <div class=\"col-sm-6\">\n      <div class=\"field\" data-field=\"demoCliHomePhone\"><\/div>\n      <div class=\"field\" data-field=\"demoCliMobilePhone\"><\/div>\n    <\/div>\n    <div class=\"col-sm-6\">\n      <div class=\"field\" data-field=\"demoCliWorkPhone\"><\/div>\n      <div class=\"field\" data-field=\"demoCliFax\"><\/div>\n    <\/div>\n  <\/div>\n<\/div>",
    "ofa_icon":"",
    "row_module_id.mdl_name":"Demo"
  }]
}