{
  "name":"TranslateActivity",
  "action":"upsert",
  "data":[{
    "tsl_typeActivity":"T",
    "tsl_id.acy_step":"ORDC-100",
    "tsl_id.acy_process_id.pcs_name":"DemoOrderCreate",
    "tsl_lang":"ENU",
    "tsl_value":"Select client",
    "row_module_id.mdl_name":"Demo"
  }]
}